<?xml version="1.0" encoding="utf-8"?>
<!-- Generator: Adobe Illustrator 15.0.0, SVG Export Plug-In . SVG Version: 6.00 Build 0)  -->
<!DOCTYPE svg PUBLIC "-//W3C//DTD SVG 1.1//EN" "http://www.w3.org/Graphics/SVG/1.1/DTD/svg11.dtd">
<svg version="1.1" id="Calque_1" xmlns="http://www.w3.org/2000/svg" xmlns:xlink="http://www.w3.org/1999/xlink" x="0px" y="0px"
	 width="13px" height="10px" viewBox="0 0 13 10" enable-background="new 0 0 13 10" xml:space="preserve">
<path fill="none" d="M1.5,0h10v10h-10V0z"/>
<path fill="#007CB7" d="M6.916,1.25c-2.083,0-3.75,1.666-3.75,3.75h-1.25l1.625,1.625l0.042,0.041L5.25,5H4
	c0-1.625,1.292-2.916,2.917-2.916S9.833,3.375,9.833,5S8.541,7.916,6.916,7.916c-0.792,0-1.542-0.332-2.042-0.875L4.291,7.625
	c0.667,0.666,1.625,1.084,2.667,1.084c2.083,0,3.75-1.668,3.75-3.75C10.666,2.916,9,1.25,6.916,1.25z"/>
</svg>
