<?xml version="1.0" encoding="utf-8"?>
<!-- Generator: Adobe Illustrator 15.0.0, SVG Export Plug-In . SVG Version: 6.00 Build 0)  -->
<!DOCTYPE svg PUBLIC "-//W3C//DTD SVG 1.1//EN" "http://www.w3.org/Graphics/SVG/1.1/DTD/svg11.dtd">
<svg version="1.1" id="Calque_1" xmlns="http://www.w3.org/2000/svg" xmlns:xlink="http://www.w3.org/1999/xlink" x="0px" y="0px"
	 width="24px" height="24px" viewBox="0 0 24 24" enable-background="new 0 0 24 24" xml:space="preserve">
<path fill="none" stroke="#007CB7" stroke-miterlimit="10" d="M19.449,23.36H4.551c-0.745,0-1.368-0.623-1.368-1.367V2.008
	c0-0.745,0.623-1.368,1.368-1.368h9.561l6.704,6.704v14.648C20.816,22.737,20.193,23.36,19.449,23.36z"/>
<rect x="6.919" y="12" fill="#007CB7" width="10.162" height="2.544"/>
<rect x="6.919" y="17.081" fill="#007CB7" width="10.162" height="2.544"/>
<polygon fill="#007CB7" points="19.94,8.122 13.269,8.122 13.269,1.451 "/>
</svg>
