<?xml version="1.0" encoding="utf-8"?>
<!-- Generator: Adobe Illustrator 15.0.0, SVG Export Plug-In . SVG Version: 6.00 Build 0)  -->
<!DOCTYPE svg PUBLIC "-//W3C//DTD SVG 1.1//EN" "http://www.w3.org/Graphics/SVG/1.1/DTD/svg11.dtd">
<svg version="1.1" id="Calque_1" xmlns="http://www.w3.org/2000/svg" xmlns:xlink="http://www.w3.org/1999/xlink" x="0px" y="0px"
	 width="10px" height="14.5px" viewBox="0 0 10 14.5" enable-background="new 0 0 10 14.5" xml:space="preserve">
<path fill="#007CB7" d="M10,5.292c0,2.761-5,8.922-5,8.922S0,8.054,0,5.292s2.239-5,5-5C7.762,0.292,10,2.531,10,5.292z"/>
<circle fill="#FFFFFF" cx="5" cy="5.292" r="4.142"/>
<circle fill="#007CB7" cx="5" cy="5.292" r="3.291"/>
<path fill="#FFFFFF" d="M5.5,5.52c0,0.176-0.224,0.319-0.5,0.319l0,0c-0.276,0-0.5-0.143-0.5-0.319V2.736
	C4.5,2.56,4.724,2.417,5,2.417l0,0c0.276,0,0.5,0.143,0.5,0.319V5.52z"/>
<path fill="#FFFFFF" d="M4.667,5.204C4.484,5.479,4.455,5.782,4.603,5.879l1.39,0.918c0.146,0.098,0.414-0.048,0.596-0.323l0,0
	C6.771,6.2,6.8,5.897,6.653,5.799L5.264,4.881C5.117,4.784,4.85,4.929,4.667,5.204L4.667,5.204z"/>
</svg>
