<?xml version="1.0" encoding="utf-8"?>
<!-- Generator: Adobe Illustrator 15.0.0, SVG Export Plug-In . SVG Version: 6.00 Build 0)  -->
<!DOCTYPE svg PUBLIC "-//W3C//DTD SVG 1.1//EN" "http://www.w3.org/Graphics/SVG/1.1/DTD/svg11.dtd">
<svg version="1.1" id="Calque_1" xmlns="http://www.w3.org/2000/svg" xmlns:xlink="http://www.w3.org/1999/xlink" x="0px" y="0px"
	 width="2.322px" height="10px" viewBox="0 0 2.322 10" enable-background="new 0 0 2.322 10" xml:space="preserve">
<path fill="#00648C" d="M0.709,9.666l0.938-0.082C1.604,9.688,1.563,9.813,1.5,9.813c0,0-0.125,0.041-0.354,0.041
	c-0.229,0-0.354-0.041-0.354-0.041C0.771,9.813,0.75,9.771,0.709,9.666z M0.667,9.5l1.042-0.104C1.73,9.334,1.75,9.25,1.792,9.209
	L0.625,9.313C0.646,9.396,0.667,9.5,0.667,9.5z M2.355,8.104c0,0.334-0.229,0.688-0.396,0.875L0.5,9.104C0.375,9,0,8.541,0,8.104
	c0-0.707,0.542-1.291,1.167-1.291C1.814,6.813,2.355,7.396,2.355,8.104z M1.188,7.396C1.084,7.291,0.875,7.313,0.729,7.5
	C0.584,7.688,0.521,7.896,0.625,8.021c0.104,0.104,0.313,0.063,0.458-0.105C1.25,7.729,1.292,7.521,1.188,7.396z"/>
<path fill="#0077B4" d="M0.709,6.334L1.646,6.25C1.604,6.354,1.563,6.479,1.5,6.479c0,0-0.125,0.043-0.354,0.043
	c-0.229,0-0.354-0.043-0.354-0.043C0.771,6.479,0.75,6.438,0.709,6.334z M0.667,6.166l1.042-0.104C1.73,6,1.75,5.916,1.792,5.875
	L0.625,5.979C0.646,6.063,0.667,6.166,0.667,6.166z M2.355,4.771c0,0.332-0.229,0.688-0.396,0.875L0.5,5.771
	C0.375,5.666,0,5.208,0,4.771c0-0.709,0.542-1.293,1.167-1.293C1.814,3.479,2.355,4.063,2.355,4.771z M1.188,4.063
	C1.084,3.959,0.875,3.979,0.729,4.166C0.584,4.354,0.521,4.563,0.625,4.688C0.729,4.791,0.938,4.75,1.084,4.584
	C1.25,4.396,1.292,4.188,1.188,4.063z"/>
<path fill="#0077B4" d="M0.709,3l0.938-0.084c-0.042,0.105-0.083,0.23-0.146,0.23c0,0-0.125,0.041-0.354,0.041
	S0.793,3.146,0.793,3.146C0.771,3.146,0.75,3.104,0.709,3z M0.667,2.834l1.042-0.105C1.73,2.666,1.751,2.584,1.793,2.541
	L0.625,2.646C0.646,2.729,0.667,2.834,0.667,2.834z M2.355,1.438c0,0.334-0.229,0.688-0.396,0.875L0.5,2.438
	C0.375,2.334,0,1.875,0,1.438c0-0.709,0.542-1.291,1.167-1.291C1.814,0.146,2.355,0.729,2.355,1.438z M1.188,0.729
	C1.084,0.625,0.875,0.646,0.729,0.834c-0.146,0.188-0.208,0.395-0.104,0.52C0.729,1.459,0.938,1.416,1.084,1.25
	C1.25,1.063,1.292,0.854,1.188,0.729z"/>
</svg>
