<?xml version="1.0" encoding="utf-8"?>
<!-- Generator: Adobe Illustrator 22.1.0, SVG Export Plug-In . SVG Version: 6.00 Build 0)  -->
<svg version="1.1" id="Layer_1" xmlns="http://www.w3.org/2000/svg" xmlns:xlink="http://www.w3.org/1999/xlink" x="0px" y="0px"
	 viewBox="0 0 2605.8 1396" style="enable-background:new 0 0 2605.8 1396;" xml:space="preserve">
<style type="text/css">
	.st0{fill:#FFFFFF;}
	.st1{fill:#CCCCCC;}
</style>
<rect x="1" class="st0" width="2604" height="1396"/>
<path class="st1" d="M2594.8,885c-7,5.5-27.5,25-33.5,28s-9,14.5-18,24.5s-6,14.5-12,21s-7.5-2-18.5,4s-11.5,4.5-16,2s-19-11-23-17
	s0-10-4-13s-9.5,0-13,0.5s-28-1-43-2.5s-24,1.5-45.5,12s-56.5,52-61,55s-5-2-9.5-5s-12-2.5-23-2.5s-9.5,3-12.5,0s0-7-3-10.5
	c0,0-2.1-13-2.1-15.9c0-2.9-1.3-13.9-1.5-16.1s-2.1-4.6-3.6-5.9s-2.8-4.4-3.9-6.5c-1.1-2.1-6.4-4.1-7.5-4.1s-5-1-6.9-1.5
	s-5.1-3.5-5.8-3.9c-0.7-0.4-1.5-3.4-1.6-6c-0.1-2.6-1.6-21.6-2.3-25.1s-5.6-7.9-6.8-9.6s-4.6-4.4-7.4-5.8c-2.8-1.4-8.4-1.9-12-2.6
	s-13.6,0.5-16.9,0.9c-3.3,0.4-14,0.6-16.3,0.3c-2.3-0.3-5.9-2.6-7.3-3.3c-1.4-0.7-7-5-7.8-6.6c-0.8-1.6-2-4-2.5-4.9
	c-0.5-0.9-3.1-2-3.8-2.3s-1-2.4-1-2.4s0.3-1.1,0.8-1.6s7.8-9.5,9.6-12s13.1-22.1,14.1-25.4s1.3-8.3,1-11.1c-0.3-2.8-2-5.3-3-7.3
	s-2.8-4.9-3.6-6.4s-2.5-1.6-3.6-2.3c-1.1-0.7-3,0.1-3.8-0.1s-3.5-0.8-4.3-0.9c-0.8-0.1-3.3-0.3-4.4,0.3s-4.1,2.3-5.1,2.4
	c-1,0.1-3-0.3-3.9-0.9c-0.9-0.6-2.5-2.1-3.4-3.1s-0.8-2.3-1-3.4c-0.2-1.1-2.9-13.6-3.3-15.1s0.3-6.1,0.6-8.1s3.9-6.5,4.5-8.1
	c0.6-1.6,2.5-6.1,2.6-7.8s1.3-5,1.6-6.4c0.3-1.4,1.9-3.4,2.6-4.5c0.7-1.1,4.1-4.9,4.8-5.1s2.9-2,4-3.4c1.1-1.4,1.5-2.1,2-3
	c0.5-0.9,0.3-2.5,0.4-3.4c0.1-0.9,0.8-2,1-3.4c0.2-1.4,1.6-2.9,1.6-3.8s0.3-2.6,0.8-3.8s0,0-0.3-0.9c-0.3-0.9,0.9-3.6,1.3-5.3
	s0.3-5,0-6.3s-2.4-3.6-3.1-4.5c-0.7-0.9-2.8-1.8-4.6-3.4c-1.8-1.6-8.5-5.1-10.5-6c-2-0.9-5.5-2-8.1-2.3s-6.4,0.5-9.5,1.3
	c-3.1,0.8-6.3,3.9-8.4,5.9s-4.4,5.9-5.1,7.6s-2.3,7.5-2.1,9.5s0,6.5,0,7.1c0,0.6-1.9,2.8-2.6,2.8s-1.4,0.5-2.5,1s-9.1,5.6-12.8,7.8
	c-3.7,2.2-19.4,16-22.4,18.8c-3,2.8-10.8,14-12.6,17.3s-15.4,35.5-16.4,37.6c-1,2.1-5.9,12-6.5,13.6c-0.6,1.6-0.4,3.1-0.6,4.3
	c-0.2,1.2,0.8,3,0.9,3.9c0.1,0.9,0.3,3.1,0.3,4.3c0,1.2-0.1,10.3-0.4,12.3s2.3,7.4,2.8,10.1s3.4,5.4,3.4,5.4s0,0,1.4,2.4
	c1.4,2.4,5.5,6.1,8,7.4s6.5,4.4,7.2,5.4s1.5,2.1,2,4c0.5,1.9,1.9,8.4,2.8,10.8c0.9,2.4,3.9,12.6,4.4,14.4s1.3,5.5,1.5,8
	s1.6,10.3,1.1,11.1c-0.5,0.8,0.4,1.4,0,2.5c-0.4,1.1-8.5,14.6-9.6,15.9s-7.2,16-7.5,18.8s0.1,13,0,14.8s-8,28.1-8.1,28.8
	c-0.1,0.7-0.8,2.3-1.1,2.9c-0.3,0.6-5.4,7-6,8.8s-1,5.8-1.6,8.3s-2.6,4.6-3,5.6c-0.4,1,1.3,4,0,5.7c-1.3,1.7-6,2-8.7,3.3
	c-2.7,1.3-5.7,3-7.7,3.3c-2,0.3-5.3,1-8,2s-5.3,5.7-9,11.3c-3.7,5.7-4,19.3-4.3,23.3s-5.7,23.7-6,27c-0.3,3.3-7.3,37.3-9,41.7
	c-1.7,4.3-3,13.3-4.7,13.7c-1.7,0.3-2.3-1.7-5.3-1.7s-9,0.7-11.3,0.7s-11.3-2.3-15.3-1.7c-4,0.7-8.7,3.7-12.7,2.3s-8.3-1-14,0
	s-17.3,3-24.7,4.3c-7.3,1.3-18.3,0-23-0.3c-4.7-0.3-8.7,3.3-13.7,4.7c-5,1.3-13,1.3-19,3.3s-16.3,9.3-22,10.3s-16.3,4-21,4
	s-9.3,4.3-13,5.7s-20.3,11.7-23.3,13.3c-3,1.7-11.3,11.3-13,14.7c-1.7,3.3-7,9-9.7,11s-2-0.3-3.3-1c-1.3-0.7,1.3-19.7,0-24
	c-1.3-4.3-4-6.3-8.7-7.7c-4.7-1.3-13.3-1-18-1s-19,1.3-24,2c-5,0.7-8.7,0.7-12.3,1c-3.7,0.3-11.7,2.7-14.7,4.3c-3,1.7-7,0-10.7-0.7
	c-3.7-0.7-8.3,0-14.3,3s-13.7,8.3-17.3,9.7c-3.7,1.3-4.7,6-6.3,6.7c-1.7,0.7-6-0.7-11.7-4c-5.7-3.3-10.7-3-14.7-2.7
	c-4,0.3-8,6.3-9.3,9.3s-5.7,8.7-7.7,14.3c-2,5.7,0,10,0,13.3c0,3.3-6,3.7-9,3.7s-4.3-1.3-8.3-4.3s-5-9.3-6.7-11.3s1.3-30.7,2-39.7
	s0.7-26.7,0-35c-0.7-8.3-1.3-21-1.7-26s-2.7-9-7.3-10.1c-4.7-1.1-13.7-1.9-19,0s-18,3.8-24.7,5.8s-14.3,0.7-20.7,3.7
	c-6.3,3-12.3,6.3-14.3,7.7s-9.3-0.3-12.3,0.3c-3,0.7-5.3,2.7-8.3,1.3c-3-1.3,0.3-9,0-11.3c-0.3-2.3-1.3-6.7-5-7.3
	c-3.7-0.7-10.3,2.3-13.7,3.3c-3.3,1-10.3,8.3-13.7,9.7s-6.3-0.3-9.7,0c-3.3,0.3-23,15-28,19.7c-5,4.7-14,7.3-17.7,7.7
	c-3.7,0.3-9-3-14-4.3c-5-1.3-22.7-1.7-22.7-1.7s-15.3-1.3-16.7-2.3c-1.3-1-3.3-3-5.7-2.7c-2.3,0.3-5.3,2.3-9.3,3.7s-6.7,1.7-9.7,1.7
	s-9,4-12,5.3c-3,1.3-6,4-9.3,5.7c-3.3,1.7-9,4-13.3,4.5s-13,2.5-14.7,3.1c-1.7,0.7-4.3,3.7-6.7,3.3c-2.3-0.3-7.3-3.3-9-4
	c-1.7-0.7-64.7-12.9-68-14.6c-3.3-1.7-112.3,41.2-114,40.5c-1.7-0.7-18-21-28.5-15s-33.5-19.2-39-18.6
	c-5.6,0.6-147.3,7.2-185.9-17.4c-38.7-24.7-56.1,12-60,19.5s-141,37-159,27s-82.5-33-94.5-51s-13.8-17.7-28.5-15
	c-14.7,2.7-104.3-12.2-159-19.5c-54.7-7.3-54,18.2-60,31.5c-15.3,30.7-45.3,24.1-54,31.6C129,1192.6,0,1164.1,0,1164.1L0,1396
	l2605.8,0l0-518.5C2605.8,877.5,2601.8,879.5,2594.8,885z M2109.2,852.8c0.2,0.1,1.6,0.3,2,2.1c0.4,1.9-0.1,5.4,0.2,6.1
	c0.7,1.5,1.2,3.9-0.8,6.8c-1,2.9-1.1,4.1-3.3,7.7c-2.2,3.6-6,6.2-6.7,6c-0.5-0.1-1.6-1-2.2-3.3c-0.4-1.6-0.3-4.3-0.7-6.3
	c-0.9-4.8-1.5-9.8-1.5-10.9c0-2.3,3.7-5.2,6-5.2C2104.6,855.8,2108.1,852.1,2109.2,852.8z M2093.7,1016.3c-1.1,1.8-2.8,3.8-7.1,2.8
	c-4.3-1.1-7.6-3.1-8.9-6.5c-1.3-3.4-5.5-5.9-7.6-7.3c-1.6-1-3.3,0.7-4.3-1c-1.2-2.2-3.7-0.6-3.1-4.3c0.9-5.6,3.1-11.5,7-21.4
	c6-8.7,10.8-22.5,15.3-32.4c6.6-9.8,10.5-17.3,12.3-22.8c2.2-7,1.4-10.9,2.1-11.4c1.3-0.9,2-0.8,2-0.5c-0.3,4.9-2,9.1-5.5,26
	c-1.4,7.5-1.6,32.4-2.4,39.5c-0.8,7.1-0.3,23.8,0.4,28S2094.8,1014.5,2093.7,1016.3z"/>
</svg>
