<?xml version="1.0" encoding="utf-8"?>
<!-- Generator: Adobe Illustrator 19.1.0, SVG Export Plug-In . SVG Version: 6.00 Build 0)  -->
<svg version="1.1" id="Hes" xmlns="http://www.w3.org/2000/svg" xmlns:xlink="http://www.w3.org/1999/xlink" x="0px" y="0px"
	 viewBox="0 0 218.6 120" style="enable-background:new 0 0 218.6 120;" xml:space="preserve">
<style type="text/css">
	.st0{fill:#ACA39A;}
	.st1{fill:#007CB7;}
</style>
<g>
	<path d="M93,54.7c-0.6,0-0.6,0-1.2,0l-0.1-0.1c0-1.2,0.1-2.4,0.1-3.5c-0.3,0-0.5,0-1,0c-0.9,0-1.8,0-2.6,0c0,2,0,2.7,0.1,3.4
		l-0.1,0.1c-0.6,0-0.6,0-1.2,0l-0.1-0.1c0-1,0.1-1.5,0.1-4.7c0-1.4,0-1.9-0.1-2.5l0.1-0.1c0.6,0,0.7,0,1.2,0l0.1,0.1
		c0,0.6,0,1.5,0,2.9c0.6,0,0.9,0,1.6,0c1,0,1.5,0,2,0c0-2,0-2.2-0.1-2.8l0.1-0.1c0.6,0,0.7,0,1.2,0l0.1,0.1c0,1,0,1.7,0,3.5
		C92.9,53,93,53.7,93,54.7L93,54.7z"/>
	<path d="M98.1,51.8v1.7C98,53.7,97.6,54,96.9,54c-1,0-1-0.9-1-0.9C95.9,52.2,96.9,52,98.1,51.8L98.1,51.8z M99.3,51.6
		c0-0.4,0-1-0.1-1.3c-0.2-0.8-1-1.1-1.8-1.1c-0.6,0-1.3,0.1-1.9,0.3l-0.1,0.1c0,0.2,0,0.3,0,0.8l0.1,0.1c0.5-0.2,1-0.4,1.7-0.4
		c0.5,0,0.8,0.2,0.9,0.4c0.1,0.2,0.1,0.4,0.1,0.6l-0.2,0c-2,0.2-3.2,0.7-3.2,2c0,1,0.8,1.7,1.9,1.7c0.8,0,1.3-0.4,1.5-0.5l0,0.4
		l0,0.1c0.5,0,0.6,0,1.1,0l0.1-0.1c-0.1-0.7-0.1-0.8-0.1-2.1V51.6z"/>
	<path d="M106.1,49.4c0,0.8,0,1.5,0,2.4c0,1.3,0,2,0.1,2.5c0,0.1,0,0.3,0,0.4l0,0.1c-0.5,0-0.6,0-1.1,0l-0.1-0.1l0-0.4
		c-0.2,0.2-0.8,0.6-1.7,0.6c-0.4,0-0.9-0.1-1.3-0.4c-0.7-0.5-0.7-1.4-0.7-2.2v-0.6c0-1.5,0-1.6-0.1-2.2l0.1-0.1c0.5,0,0.6,0,1.1-0.1
		l0.1,0.1l0,2.3c0,0.3,0,0.5,0,1c0,0.4,0,1.4,1.1,1.4c0.6,0,1.1-0.3,1.4-0.5c0-0.6,0-1,0-1.6c0-1.4,0-1.7-0.1-2.4l0.1-0.1
		C105.4,49.4,105.6,49.4,106.1,49.4L106.1,49.4z"/>
	<path d="M110.7,53.9c0,0.3,0,0.4,0,0.7l-0.1,0.1c-0.2,0.1-0.4,0.1-0.8,0.1c-0.3,0-1,0-1.3-0.5c-0.2-0.3-0.2-0.5-0.2-1.8l0-2.3
		c-0.4,0-0.4,0-0.8,0l0-0.1c0-0.3,0-0.4,0-0.7l0.1-0.1c0.2,0,0.4,0,0.7,0c0-0.2,0-0.4,0-0.7c0-0.2,0-0.4,0-0.6l0.1-0.1
		c0.5-0.1,0.6-0.1,1.1-0.3l0.1,0.1c0,0.7,0,0.8,0,1.6c0.5,0,0.6,0,1.2,0l0.1,0.1c0,0.3,0,0.4,0,0.7l-0.1,0.1c-0.5,0-0.6,0-1.2,0
		l0,1.9c0,0.1,0,0.7,0,0.9c0,0.8,0.1,1,0.6,1C110.3,54,110.5,53.9,110.7,53.9L110.7,53.9z"/>
	<path d="M115.7,51.4c-1,0-1.4,0-2.8,0c0.1-1,0.8-1.4,1.4-1.4c0.5,0,1,0.2,1.2,0.8C115.7,51,115.7,51.3,115.7,51.4z M116.6,53.4
		c-0.1,0.1-0.4,0.3-0.8,0.5c-0.3,0.1-0.6,0.2-1,0.2c-0.3,0-1-0.1-1.4-0.6c-0.4-0.4-0.4-0.9-0.4-1.3c1.8,0,2.1,0,3.8,0l0.1-0.1
		c0-0.5,0-1.5-0.6-2.2c-0.3-0.4-0.9-0.7-1.8-0.7c-1.4,0-2.7,0.9-2.7,2.9c0,1.8,1.1,2.8,2.9,2.8c1,0,1.6-0.3,1.8-0.4l0.1-0.1
		C116.6,54,116.6,53.9,116.6,53.4L116.6,53.4z"/>
	<path d="M127,53.9c0,0.4,0,0.4-0.1,0.8l-0.1,0.1c-2.1,0-2.5,0-4.6,0l-0.1-0.1c0-0.8,0.1-1.4,0.1-3.3c0-1.7,0-2.7-0.1-3.9l0.1-0.1
		c2.2,0,2.6,0,4.6,0l0.1,0.1c0,0.3-0.1,0.4-0.1,0.8l-0.1,0.1c-1.4,0-1.9,0-3.3-0.1c0,1,0,1.3,0,2.2c1.4,0,1.8,0,3.1,0l0.1,0.1
		c0,0.4,0,0.5-0.1,0.8l-0.1,0.1c-1.3,0-1.5,0-3,0c0,1.2,0,1.5,0,2.5C125.2,53.9,125.5,53.9,127,53.9L127,53.9z"/>
	<path d="M132.8,53.5c0,0.4-0.1,0.5-0.1,0.9l-0.1,0.1c-0.3,0.1-0.7,0.4-1.5,0.4c-1.7,0-2.7-1.1-2.7-2.7c0-1.6,1.1-2.9,2.8-2.9
		c0.7,0,1.2,0.2,1.5,0.3l0,0.1c0,0.4-0.1,0.5-0.1,0.8l-0.1,0c-0.4-0.2-0.8-0.4-1.2-0.4c-0.9,0-1.7,0.7-1.7,2c0,1.4,0.8,1.9,1.7,1.9
		C132,54,132.5,53.6,132.8,53.5L132.8,53.5z"/>
	<path d="M138.1,52c0,0.2,0,0.9-0.3,1.4c-0.3,0.6-0.8,0.7-1.3,0.7c-0.2,0-0.4,0-0.6-0.1c-0.9-0.4-0.9-1.5-0.9-1.9c0-0.4,0-1,0.3-1.5
		c0.4-0.6,1-0.6,1.2-0.6c0.6,0,1,0.3,1.2,0.6C138.1,51.1,138.1,51.8,138.1,52z M139.3,52c0-0.7-0.2-1.4-0.7-2
		c-0.5-0.5-1.2-0.7-2-0.7c-1.1,0-1.7,0.4-2,0.7c-0.7,0.7-0.8,1.7-0.8,2.1c0,0.3,0,1.4,0.8,2.1c0.3,0.3,1,0.7,2,0.7
		c0.8,0,1.4-0.2,1.9-0.6c0.4-0.3,0.6-0.7,0.7-1.3C139.3,52.7,139.3,52.3,139.3,52z"/>
	<path d="M142.3,54.7c-0.5,0-0.6,0-1.2,0l-0.1-0.1c0-0.7,0.1-1.7,0.1-3.6c0-1.4,0-3-0.1-4.3l0.1-0.1c0.5-0.1,0.6-0.1,1.2-0.2
		l0.1,0.1c-0.1,1.4-0.1,2.7-0.1,4.1C142.2,52.9,142.3,53.7,142.3,54.7L142.3,54.7z"/>
	<path d="M147.9,51.4c-1,0-1.4,0-2.8,0c0.1-1,0.8-1.4,1.4-1.4c0.5,0,1,0.2,1.2,0.8C147.9,51,147.9,51.3,147.9,51.4z M148.8,53.4
		c-0.1,0.1-0.4,0.3-0.8,0.5c-0.3,0.1-0.6,0.2-1,0.2c-0.3,0-1-0.1-1.4-0.6c-0.4-0.4-0.4-0.9-0.4-1.3c1.8,0,2.1,0,3.8,0l0.1-0.1
		c0-0.5,0-1.5-0.6-2.2c-0.3-0.4-0.9-0.7-1.8-0.7c-1.4,0-2.7,0.9-2.7,2.9c0,1.8,1.1,2.8,2.9,2.8c1,0,1.6-0.3,1.8-0.4l0.1-0.1
		C148.8,54,148.8,53.9,148.8,53.4L148.8,53.4z"/>
	<path d="M157.3,50.6c0.8,0.3,1.9,0.8,1.9,2.1c0,1.2-0.9,2.2-2.8,2.2c-1.2,0-1.9-0.3-2.2-0.5l0-0.1c0-0.4,0.1-0.6,0.1-1l0.1,0
		c0.3,0.2,0.9,0.6,1.9,0.6c1.1,0,1.6-0.5,1.6-1.2c0-0.7-0.6-1-1.4-1.3l-0.5-0.2c-0.8-0.3-1.8-0.8-1.8-2c0-0.4,0.1-0.8,0.3-1.1
		c0.5-0.7,1.4-0.9,2.3-0.9c0.9,0,1.4,0.2,2,0.3l0.1,0.1c0,0.4-0.1,0.5-0.1,0.9l-0.1,0c-0.5-0.2-1-0.5-1.8-0.5c-0.9,0-1.5,0.4-1.5,1
		c0,0.5,0.3,0.7,0.6,0.8c0.1,0.1,0.2,0.1,0.8,0.4L157.3,50.6z"/>
	<path d="M162.1,54c0-0.6,0-1.2,0-1.8c0-0.5,0-1.1,0-1.6c0.3-0.2,0.7-0.4,1.3-0.4c0.9,0,1.5,0.7,1.5,1.7c0,1.3-0.8,2.1-2.3,2.1
		C162.3,54,162.2,54,162.1,54z M162.1,49.4L162.1,49.4c-0.6,0-0.7,0.1-1.2,0.1l-0.1,0.1c0.1,1.2,0.1,1.9,0.1,3.5c0,0.6,0,1.2,0,1.8
		c0,1.1,0,1.7,0,2.3l0.1,0.1c0.4,0,0.8,0,1.2,0l0.1-0.1c-0.1-1-0.1-1.2-0.1-2.5c0.2,0,0.3,0,0.5,0c2.3,0,3.4-1.4,3.4-3
		c0-1.5-1-2.5-2.4-2.5c-0.9,0-1.4,0.4-1.6,0.6L162.1,49.4z"/>
	<path d="M171.4,51.4c-1,0-1.4,0-2.8,0c0.1-1,0.8-1.4,1.4-1.4c0.5,0,1,0.2,1.2,0.8C171.4,51,171.4,51.3,171.4,51.4z M171.3,47.1
		c-0.2,0-0.4,0-0.6,0s-0.4,0-0.6,0l-0.1,0.1c-0.2,0.7-0.6,1.3-0.7,1.6l0,0.1c0.4,0,0.5,0,0.8,0l0.1,0
		C170.8,48,170.9,47.9,171.3,47.1L171.3,47.1z M172.2,53.4c-0.1,0.1-0.4,0.3-0.8,0.5c-0.3,0.1-0.6,0.2-1,0.2c-0.3,0-1-0.1-1.4-0.6
		c-0.4-0.4-0.4-0.9-0.4-1.3c1.8,0,2.1,0,3.8,0l0.1-0.1c0-0.5,0-1.5-0.6-2.2c-0.3-0.4-0.9-0.7-1.8-0.7c-1.4,0-2.7,0.9-2.7,2.9
		c0,1.8,1.1,2.8,2.9,2.8c1,0,1.6-0.3,1.8-0.4l0.1-0.1C172.2,54,172.3,53.9,172.2,53.4L172.2,53.4z"/>
	<path d="M178.3,53.5c0,0.4-0.1,0.5-0.1,0.9l-0.1,0.1c-0.3,0.1-0.7,0.4-1.5,0.4c-1.7,0-2.7-1.1-2.7-2.7c0-1.6,1.1-2.9,2.8-2.9
		c0.7,0,1.2,0.2,1.5,0.3l0,0.1c0,0.4-0.1,0.5-0.1,0.8l-0.1,0c-0.4-0.2-0.8-0.4-1.2-0.4c-0.9,0-1.7,0.7-1.7,2c0,1.4,0.8,1.9,1.7,1.9
		C177.6,54,178,53.6,178.3,53.5L178.3,53.5z"/>
	<path d="M180.9,54.7c-0.6,0-0.7,0-1.2,0l-0.1-0.1c0-0.5,0.1-1,0.1-2.2c0-2,0-2.3-0.1-3l0.1-0.1c0.5-0.1,0.6-0.1,1.2-0.2l0.1,0.1
		c0,0.5-0.1,1.1-0.1,2.4C180.9,53.7,180.9,54,180.9,54.7L180.9,54.7z M180.9,47.9c-0.6,0-0.7,0-1.2,0.1l-0.1-0.1c0-0.1,0-0.3,0-0.4
		c0-0.2,0-0.4,0-0.6l0.1-0.1c0.6,0,0.7-0.1,1.2-0.1l0.1,0.1C181,47.2,181,47.3,180.9,47.9L180.9,47.9z"/>
	<path d="M186,51.8v1.7c-0.1,0.1-0.5,0.5-1.2,0.5c-1,0-1-0.9-1-0.9C183.8,52.2,184.8,52,186,51.8L186,51.8z M187.1,51.6
		c0-0.4,0-1-0.1-1.3c-0.2-0.8-1-1.1-1.8-1.1c-0.6,0-1.3,0.1-1.9,0.3l-0.1,0.1c0,0.2,0,0.3,0,0.8l0.1,0.1c0.5-0.2,1-0.4,1.7-0.4
		c0.5,0,0.8,0.2,0.9,0.4c0.1,0.2,0.1,0.4,0.1,0.6l-0.2,0c-2,0.2-3.2,0.7-3.2,2c0,1,0.8,1.7,1.9,1.7c0.8,0,1.3-0.4,1.5-0.5l0,0.4
		l0,0.1c0.5,0,0.6,0,1.1,0l0.1-0.1c-0.1-0.7-0.1-0.8-0.1-2.1V51.6z"/>
	<path d="M190.3,54.7c-0.5,0-0.6,0-1.2,0l-0.1-0.1c0-0.7,0.1-1.7,0.1-3.6c0-1.4,0-3-0.1-4.3l0.1-0.1c0.5-0.1,0.6-0.1,1.2-0.2
		l0.1,0.1c-0.1,1.4-0.1,2.7-0.1,4.1C190.3,52.9,190.4,53.7,190.3,54.7L190.3,54.7z"/>
	<path d="M193.6,54.7c-0.6,0-0.7,0-1.2,0l-0.1-0.1c0-0.5,0.1-1,0.1-2.2c0-2,0-2.3-0.1-3l0.1-0.1c0.5-0.1,0.6-0.1,1.2-0.2l0.1,0.1
		c0,0.5-0.1,1.1-0.1,2.4C193.6,53.7,193.6,54,193.6,54.7L193.6,54.7z M193.6,47.9c-0.6,0-0.7,0-1.2,0.1l-0.1-0.1c0-0.1,0-0.3,0-0.4
		c0-0.2,0-0.4,0-0.6l0.1-0.1c0.6,0,0.7-0.1,1.2-0.1l0.1,0.1C193.7,47.2,193.7,47.3,193.6,47.9L193.6,47.9z"/>
	<path d="M197.9,51.6c0.4,0.1,1.4,0.5,1.4,1.5c0,0.4-0.2,0.9-0.6,1.2c-0.6,0.5-1.4,0.5-1.8,0.5c-0.6,0-1.1-0.1-1.5-0.3
		c-0.1,0-0.1,0-0.2-0.1l-0.1-0.1c0-0.4,0-0.5,0.1-0.9l0.1,0c0.2,0.1,0.7,0.5,1.5,0.5c0.9,0,1.2-0.5,1.2-0.8c0-0.5-0.5-0.6-1.1-0.8
		l-0.3-0.1c-0.5-0.1-1.4-0.4-1.4-1.5c0-1.1,1-1.6,2.2-1.6c0.8,0,1.4,0.2,1.6,0.3l0.1,0.1c0,0.4-0.1,0.4-0.1,0.8l-0.1,0
		c-0.3-0.2-0.7-0.4-1.4-0.4c-0.2,0-0.3,0-0.5,0.1c-0.3,0.1-0.6,0.3-0.6,0.6c0,0.4,0.4,0.6,1.1,0.8L197.9,51.6z"/>
	<path d="M204.6,51.4c-1,0-1.4,0-2.8,0c0.1-1,0.8-1.4,1.4-1.4c0.5,0,1,0.2,1.2,0.8C204.5,51,204.5,51.3,204.6,51.4z M204.5,47.1
		c-0.2,0-0.4,0-0.6,0c-0.2,0-0.4,0-0.6,0l-0.1,0.1c-0.2,0.7-0.6,1.3-0.7,1.6l0,0.1c0.4,0,0.5,0,0.8,0l0.1,0
		C203.9,48,204,47.9,204.5,47.1L204.5,47.1z M205.4,53.4c-0.1,0.1-0.4,0.3-0.8,0.5c-0.3,0.1-0.6,0.2-1,0.2c-0.3,0-1-0.1-1.4-0.6
		c-0.4-0.4-0.4-0.9-0.4-1.3c1.8,0,2.1,0,3.8,0l0.1-0.1c0-0.5,0-1.5-0.6-2.2c-0.3-0.4-0.9-0.7-1.8-0.7c-1.4,0-2.7,0.9-2.7,2.9
		c0,1.8,1.1,2.8,2.9,2.8c1,0,1.6-0.3,1.8-0.4l0.1-0.1C205.4,54,205.4,53.9,205.4,53.4L205.4,53.4z"/>
	<path d="M211,51.4c-1,0-1.4,0-2.8,0c0.1-1,0.8-1.4,1.4-1.4c0.5,0,1,0.2,1.2,0.8C211,51,211,51.3,211,51.4z M211.8,53.4
		c-0.1,0.1-0.4,0.3-0.8,0.5c-0.3,0.1-0.6,0.2-1,0.2c-0.3,0-1-0.1-1.4-0.6c-0.4-0.4-0.4-0.9-0.4-1.3c1.8,0,2.1,0,3.8,0l0.1-0.1
		c0-0.5,0-1.5-0.6-2.2c-0.3-0.4-0.9-0.7-1.8-0.7c-1.4,0-2.7,0.9-2.7,2.9c0,1.8,1.1,2.8,2.9,2.8c1,0,1.6-0.3,1.8-0.4l0.1-0.1
		C211.8,54,211.8,53.9,211.8,53.4L211.8,53.4z"/>
	<path d="M102,65.8c-0.2,0.1-0.6,0.5-1.2,0.5c-0.6,0-0.9-0.2-1.1-0.5c-0.2-0.3-0.4-0.7-0.4-1.3c0-0.9,0.4-1.4,0.6-1.6
		c0.5-0.5,1.3-0.5,1.6-0.5c0.2,0,0.4,0,0.5,0C102,64.2,102,64.5,102,65.8z M101.9,59.1c0.1,0.6,0.1,1.2,0.1,2.5c-0.3,0-0.4,0-0.6,0
		c-0.6,0-1.6,0-2.4,0.7c-0.5,0.4-1,1.1-1,2.2c0,1.6,1,2.7,2.5,2.7c0.8,0,1.2-0.3,1.5-0.5l0,0.4l0.1,0.1c0.5,0,0.6,0,1.1,0l0.1-0.1
		c0-0.7-0.1-1.5-0.1-3.1c0-1,0-3.6,0.1-5l-0.1-0.1C102.7,58.9,102.6,59,101.9,59.1L101.9,59.1z"/>
	<path d="M108.9,63.7c-1,0-1.4,0-2.8,0c0.1-1,0.8-1.4,1.4-1.4c0.5,0,1,0.2,1.2,0.8C108.8,63.4,108.8,63.6,108.9,63.7z M109.7,65.8
		c-0.1,0.1-0.4,0.3-0.8,0.5c-0.3,0.1-0.6,0.2-1,0.2c-0.3,0-1-0.1-1.4-0.6c-0.4-0.4-0.4-0.9-0.4-1.3c1.8,0,2.1,0,3.8,0l0.1-0.1
		c0-0.5,0-1.5-0.6-2.2c-0.3-0.4-0.9-0.7-1.8-0.7c-1.4,0-2.7,0.9-2.7,2.9c0,1.8,1.1,2.8,2.9,2.8c1,0,1.6-0.3,1.8-0.4l0.1-0.1
		C109.7,66.3,109.7,66.2,109.7,65.8L109.7,65.8z"/>
	<path d="M118.2,63c0.8,0.3,1.9,0.8,1.9,2.1c0,1.2-0.9,2.2-2.8,2.2c-1.2,0-1.9-0.3-2.2-0.5l0-0.1c0-0.4,0.1-0.6,0.1-0.9l0.1,0
		c0.3,0.2,0.9,0.6,1.9,0.6c1.1,0,1.6-0.5,1.6-1.2c0-0.7-0.6-1-1.4-1.3l-0.5-0.2c-0.8-0.3-1.8-0.8-1.8-2c0-0.4,0.1-0.8,0.3-1.1
		c0.5-0.7,1.4-0.9,2.3-0.9c0.9,0,1.4,0.2,2,0.3l0.1,0.1c0,0.4-0.1,0.5-0.1,0.9l-0.1,0c-0.5-0.2-1-0.5-1.8-0.5c-0.9,0-1.5,0.4-1.5,1
		c0,0.5,0.3,0.7,0.6,0.8c0.1,0.1,0.2,0.1,0.8,0.4L118.2,63z"/>
	<path d="M126.6,61.7c0,0.8,0,1.5,0,2.4c0,1.3,0,2,0.1,2.5c0,0.1,0,0.3,0,0.4l0,0.1c-0.5,0-0.6,0-1.1,0l-0.1-0.1l0-0.4
		c-0.2,0.2-0.8,0.6-1.7,0.6c-0.4,0-0.9-0.1-1.3-0.4c-0.7-0.5-0.7-1.4-0.7-2.2V64c0-1.5,0-1.6-0.1-2.2l0.1-0.1c0.5,0,0.6,0,1.1-0.1
		l0.1,0.1l0,2.3c0,0.3,0,0.5,0,1c0,0.4,0,1.4,1.1,1.4c0.6,0,1.1-0.3,1.4-0.5c0-0.6,0-1,0-1.6c0-1.4,0-1.7-0.1-2.4l0.1-0.1
		C125.9,61.7,126.1,61.7,126.6,61.7L126.6,61.7z"/>
	<path d="M129.9,67.1c-0.6,0-0.7,0-1.2,0l-0.1-0.1c0-0.5,0.1-1,0.1-2.2c0-2,0-2.3-0.1-3l0.1-0.1c0.5-0.1,0.6-0.1,1.2-0.2l0.1,0.1
		c0,0.5-0.1,1.1-0.1,2.4C129.9,66.1,129.9,66.3,129.9,67.1L129.9,67.1z M129.9,60.2c-0.6,0-0.7,0-1.2,0.1l-0.1-0.1
		c0-0.1,0-0.3,0-0.4c0-0.2,0-0.4,0-0.6l0.1-0.1c0.6,0,0.7-0.1,1.2-0.1l0.1,0.1C129.9,59.6,129.9,59.7,129.9,60.2L129.9,60.2z"/>
	<path d="M134.2,63.9c0.4,0.1,1.4,0.5,1.4,1.5c0,0.4-0.2,0.9-0.6,1.2c-0.6,0.5-1.4,0.5-1.8,0.5c-0.6,0-1.1-0.1-1.5-0.3
		c-0.1,0-0.1,0-0.2-0.1l-0.1-0.1c0-0.4,0-0.5,0.1-0.9l0.1,0c0.2,0.1,0.7,0.5,1.5,0.5c0.9,0,1.2-0.5,1.2-0.8c0-0.5-0.5-0.6-1.1-0.8
		l-0.4-0.1c-0.4-0.1-1.4-0.4-1.4-1.5c0-1.1,1-1.6,2.2-1.6c0.8,0,1.4,0.2,1.6,0.3l0.1,0.1c0,0.4-0.1,0.4-0.1,0.8l-0.1,0
		c-0.3-0.2-0.7-0.4-1.4-0.4c-0.2,0-0.3,0-0.5,0.1c-0.3,0.1-0.6,0.3-0.6,0.6c0,0.4,0.4,0.6,1.1,0.8L134.2,63.9z"/>
	<path d="M139.5,63.9c0.4,0.1,1.4,0.5,1.4,1.5c0,0.4-0.2,0.9-0.6,1.2c-0.6,0.5-1.4,0.5-1.8,0.5c-0.6,0-1.1-0.1-1.5-0.3
		c-0.1,0-0.1,0-0.2-0.1l-0.1-0.1c0-0.4,0-0.5,0.1-0.9l0.1,0c0.2,0.1,0.7,0.5,1.5,0.5c0.9,0,1.2-0.5,1.2-0.8c0-0.5-0.5-0.6-1.1-0.8
		l-0.3-0.1c-0.5-0.1-1.4-0.4-1.4-1.5c0-1.1,1-1.6,2.2-1.6c0.8,0,1.4,0.2,1.6,0.3l0.1,0.1c0,0.4-0.1,0.4-0.1,0.8l-0.1,0
		c-0.3-0.2-0.7-0.4-1.4-0.4c-0.2,0-0.3,0-0.5,0.1c-0.3,0.1-0.6,0.3-0.6,0.6c0,0.4,0.5,0.6,1.1,0.8L139.5,63.9z"/>
	<path d="M146.1,63.7c-1,0-1.4,0-2.8,0c0.1-1,0.8-1.4,1.4-1.4c0.5,0,1,0.2,1.2,0.8C146.1,63.4,146.1,63.6,146.1,63.7z M146.9,65.8
		c-0.1,0.1-0.4,0.3-0.8,0.5c-0.3,0.1-0.6,0.2-1,0.2c-0.3,0-1-0.1-1.4-0.6c-0.4-0.4-0.4-0.9-0.4-1.3c1.8,0,2.1,0,3.8,0l0.1-0.1
		c0-0.5,0-1.5-0.6-2.2c-0.3-0.4-0.9-0.7-1.8-0.7c-1.4,0-2.7,0.9-2.7,2.9c0,1.8,1.1,2.8,2.9,2.8c1,0,1.6-0.3,1.8-0.4l0.1-0.1
		C147,66.3,147,66.2,146.9,65.8L146.9,65.8z"/>
	<path d="M156.6,64.4c0,0.2,0,0.9-0.3,1.4c-0.3,0.6-0.8,0.7-1.2,0.7c-0.2,0-0.4,0-0.6-0.1c-0.9-0.4-0.9-1.5-0.9-1.9
		c0-0.4,0-1,0.3-1.5c0.4-0.6,1-0.6,1.2-0.6c0.6,0,1,0.3,1.2,0.6C156.5,63.4,156.6,64.1,156.6,64.4z M157.8,64.3c0-0.7-0.2-1.4-0.7-2
		c-0.5-0.5-1.2-0.7-2-0.7c-1.1,0-1.7,0.4-2,0.7c-0.7,0.7-0.8,1.7-0.8,2.1c0,0.3,0,1.4,0.8,2.1c0.4,0.3,1,0.7,2,0.7
		c0.8,0,1.4-0.2,1.9-0.6c0.4-0.3,0.6-0.7,0.7-1.2C157.7,65,157.8,64.7,157.8,64.3z"/>
	<path d="M163.6,65.9c0,0.4-0.1,0.5-0.1,0.9l-0.1,0.1c-0.3,0.1-0.7,0.4-1.5,0.4c-1.7,0-2.7-1.1-2.7-2.7c0-1.6,1.1-2.9,2.8-2.9
		c0.7,0,1.2,0.2,1.5,0.3l0,0.1c0,0.4-0.1,0.5-0.1,0.8l-0.1,0c-0.4-0.2-0.8-0.4-1.2-0.4c-0.9,0-1.7,0.7-1.7,2c0,1.4,0.8,1.9,1.7,1.9
		C162.9,66.3,163.3,66,163.6,65.9L163.6,65.9z"/>
	<path d="M169.1,65.9c0,0.4-0.1,0.5-0.1,0.9l-0.1,0.1c-0.3,0.1-0.7,0.4-1.5,0.4c-1.7,0-2.7-1.1-2.7-2.7c0-1.6,1.1-2.9,2.8-2.9
		c0.7,0,1.2,0.2,1.5,0.3l0,0.1c0,0.4-0.1,0.5-0.1,0.8l-0.1,0c-0.4-0.2-0.8-0.4-1.2-0.4c-0.9,0-1.7,0.7-1.7,2c0,1.4,0.8,1.9,1.7,1.9
		C168.4,66.3,168.8,66,169.1,65.9L169.1,65.9z"/>
	<path d="M171.7,67.1c-0.6,0-0.7,0-1.2,0l-0.1-0.1c0-0.5,0.1-1,0.1-2.2c0-2,0-2.3-0.1-3l0.1-0.1c0.5-0.1,0.6-0.1,1.2-0.2l0.1,0.1
		c0,0.5-0.1,1.1-0.1,2.4C171.7,66.1,171.8,66.3,171.7,67.1L171.7,67.1z M171.8,60.2c-0.6,0-0.7,0-1.2,0.1l-0.1-0.1
		c0-0.1,0-0.3,0-0.4c0-0.2,0-0.4,0-0.6l0.1-0.1c0.6,0,0.7-0.1,1.2-0.1l0.1,0.1C171.8,59.6,171.8,59.7,171.8,60.2L171.8,60.2z"/>
	<path d="M177.4,65.8c-0.2,0.1-0.6,0.5-1.2,0.5c-0.6,0-0.9-0.2-1.1-0.5c-0.2-0.3-0.4-0.7-0.4-1.3c0-0.9,0.4-1.4,0.6-1.6
		c0.5-0.5,1.2-0.5,1.6-0.5c0.2,0,0.4,0,0.5,0C177.5,64.2,177.5,64.5,177.4,65.8z M177.4,59.1c0.1,0.6,0.1,1.2,0.1,2.5
		c-0.3,0-0.4,0-0.6,0c-0.6,0-1.6,0-2.4,0.7c-0.5,0.4-1,1.1-1,2.2c0,1.6,1,2.7,2.5,2.7c0.8,0,1.3-0.3,1.5-0.5l0,0.4l0.1,0.1
		c0.5,0,0.6,0,1.1,0l0.1-0.1c0-0.7-0.1-1.5-0.1-3.1c0-1,0-3.6,0.1-5l-0.1-0.1C178.1,58.9,178,59,177.4,59.1L177.4,59.1z"/>
	<path d="M184.3,63.7c-1,0-1.4,0-2.8,0c0.1-1,0.8-1.4,1.4-1.4c0.5,0,1,0.2,1.2,0.8C184.3,63.4,184.3,63.6,184.3,63.7z M185.1,65.8
		c-0.1,0.1-0.4,0.3-0.8,0.5c-0.3,0.1-0.6,0.2-1,0.2c-0.3,0-1-0.1-1.4-0.6c-0.4-0.4-0.4-0.9-0.4-1.3c1.8,0,2.1,0,3.8,0l0.1-0.1
		c0-0.5,0-1.5-0.6-2.2c-0.3-0.4-0.9-0.7-1.8-0.7c-1.4,0-2.7,0.9-2.7,2.9c0,1.8,1.1,2.8,2.9,2.8c1,0,1.6-0.3,1.8-0.4l0.1-0.1
		C185.1,66.3,185.2,66.2,185.1,65.8L185.1,65.8z"/>
	<path d="M192,67.1c-0.5,0-0.6,0-1.1,0l-0.1-0.1c0-0.1,0-0.2,0-0.3c0-0.5,0-1,0-1.5c0-1.6,0-1.7-0.1-1.9c-0.2-0.8-0.8-0.8-1-0.8
		c-0.7,0-1.2,0.4-1.5,0.6c0,1.8,0,2.7,0.1,3.9l-0.1,0.1c-0.5,0-0.6,0-1.2,0l-0.1-0.1c0-0.6,0-1.1,0-1.9c0-1.7-0.1-2.5-0.1-3.2
		l0.1-0.1c0.5-0.1,0.6-0.1,1.2-0.2l0.1,0.1l0,0.5c0.3-0.2,1-0.6,1.9-0.6c0.3,0,0.6,0,0.9,0.2c0.3,0.2,0.5,0.4,0.6,0.7
		c0.1,0.3,0.2,0.6,0.2,1.3V65C192,66.2,192,66.6,192,67.1L192,67.1z"/>
	<path d="M196.5,66.3c0,0.3,0,0.4,0,0.7l-0.1,0.1c-0.2,0.1-0.4,0.1-0.8,0.1c-0.3,0-1,0-1.3-0.5c-0.2-0.3-0.2-0.5-0.2-1.8l0-2.3
		c-0.4,0-0.4,0-0.8,0l0-0.1c0-0.3,0-0.4,0-0.7l0.1-0.1c0.2,0,0.4,0,0.7,0c0-0.2,0-0.4,0-0.7c0-0.2,0-0.4,0-0.6l0.1-0.1
		c0.5-0.1,0.6-0.1,1.1-0.3l0.1,0.1c0,0.7,0,0.8,0,1.6c0.5,0,0.6,0,1.2,0l0.1,0.1c0,0.3,0,0.4,0,0.7l-0.1,0.1c-0.5,0-0.6,0-1.2,0
		l0,1.9c0,0.1,0,0.7,0,0.9c0,0.8,0.1,1,0.6,1C196.1,66.3,196.3,66.3,196.5,66.3L196.5,66.3z"/>
	<path d="M201,64.2v1.7c-0.1,0.1-0.5,0.5-1.2,0.5c-1,0-1-0.9-1-0.9C198.7,64.5,199.8,64.4,201,64.2L201,64.2z M202.1,63.9
		c0-0.4,0-1-0.1-1.3c-0.2-0.8-1-1.1-1.8-1.1c-0.6,0-1.3,0.1-1.9,0.3l-0.1,0.1c0,0.2,0,0.3,0,0.8l0.1,0.1c0.5-0.2,1-0.4,1.7-0.4
		c0.5,0,0.8,0.2,0.9,0.4c0.1,0.2,0.1,0.4,0.1,0.6l-0.2,0c-2,0.2-3.2,0.7-3.2,2c0,1,0.8,1.7,1.9,1.7c0.8,0,1.3-0.4,1.5-0.5l0,0.4
		l0,0.1c0.5,0,0.6,0,1.1,0l0.1-0.1c-0.1-0.7-0.1-0.8-0.1-2.1V63.9z"/>
	<path d="M205.3,67.1c-0.5,0-0.6,0-1.2,0l-0.1-0.1c0-0.7,0.1-1.7,0.1-3.6c0-1.4,0-3-0.1-4.3l0.1-0.1c0.5-0.1,0.6-0.1,1.2-0.2
		l0.1,0.1c-0.1,1.4-0.1,2.7-0.1,4.1C205.3,65.2,205.3,66,205.3,67.1L205.3,67.1z"/>
	<path d="M211,63.7c-1,0-1.4,0-2.8,0c0.1-1,0.8-1.4,1.4-1.4c0.5,0,1,0.2,1.2,0.8C211,63.4,211,63.6,211,63.7z M211.8,65.8
		c-0.1,0.1-0.4,0.3-0.8,0.5c-0.3,0.1-0.6,0.2-1,0.2c-0.3,0-1-0.1-1.4-0.6c-0.4-0.4-0.4-0.9-0.4-1.3c1.8,0,2.1,0,3.8,0l0.1-0.1
		c0-0.5,0-1.5-0.6-2.2c-0.3-0.4-0.9-0.7-1.8-0.7c-1.4,0-2.7,0.9-2.7,2.9c0,1.8,1.1,2.8,2.9,2.8c1,0,1.6-0.3,1.8-0.4l0.1-0.1
		C211.8,66.3,211.8,66.2,211.8,65.8L211.8,65.8z"/>
</g>
<g>
	<path d="M62.1,82c-1.1,0-1.3,0-2.6,0c0,0.4,0,2,0.1,3.2l-0.1,0.1c-0.6,0-0.7,0-1.3,0l-0.1-0.1c0-0.8,0.1-1.4,0.1-4.4
		c0-1.5,0-2.1-0.1-2.7l0.1-0.1c0.8,0,3.7,0,4.4,0l0.1,0.1c0,0.4,0,0.4-0.1,0.8l-0.1,0.1c-1.4,0-1.7,0-3.1,0c0,0.4,0,1.5,0,2.1v0.2
		c1.3,0,1.6,0,2.7-0.1l0.1,0.1C62.2,81.6,62.2,81.6,62.1,82L62.1,82z"/>
	<path d="M66.8,82.3V84c-0.1,0.1-0.5,0.5-1.2,0.5c-1,0-1-0.9-1-0.9C64.5,82.6,65.6,82.4,66.8,82.3L66.8,82.3z M67.9,82
		c0-0.4,0-1-0.1-1.3c-0.2-0.8-1-1.1-1.8-1.1c-0.6,0-1.3,0.1-1.9,0.3L64,80.1c0,0.2,0,0.3,0,0.8l0.1,0.1c0.5-0.2,1-0.4,1.7-0.4
		c0.5,0,0.8,0.2,0.9,0.4c0.1,0.2,0.1,0.4,0.1,0.6l-0.2,0c-2,0.2-3.2,0.7-3.2,2c0,1,0.8,1.7,1.9,1.7c0.8,0,1.3-0.4,1.5-0.5l0,0.4
		l0,0.1c0.5,0,0.6,0,1.1,0l0.1-0.1c-0.1-0.7-0.1-0.8-0.1-2.1V82z"/>
	<path d="M74,83.9c0,0.4-0.1,0.5-0.1,0.9l-0.1,0.1c-0.3,0.1-0.7,0.4-1.5,0.4c-1.7,0-2.7-1.1-2.7-2.7c0-1.6,1.1-2.9,2.8-2.9
		c0.7,0,1.2,0.2,1.5,0.3l0,0.1c0,0.4-0.1,0.5-0.1,0.8l-0.1,0c-0.4-0.2-0.8-0.4-1.2-0.4c-0.9,0-1.7,0.7-1.7,2c0,1.4,0.8,1.9,1.7,1.9
		C73.3,84.4,73.7,84.1,74,83.9L74,83.9z"/>
	<path d="M80.3,85.2c-0.5,0-0.6,0-1.1,0l-0.1-0.1l0-0.3c0-0.5,0-1.1,0-1.6l0-1.1c0-0.2,0-0.5-0.1-0.7c-0.1-0.5-0.4-0.8-1-0.8
		c-0.6,0-1.1,0.3-1.5,0.6c0,1.8,0,2.7,0.1,3.9l-0.1,0.1c-0.5,0-0.6,0-1.2,0l-0.1-0.1c0-0.7,0.1-1.7,0.1-3.6c0-0.9,0-1.7,0-2.6
		c0-0.9-0.1-1.2-0.1-1.7l0.1-0.1c0.5-0.1,0.7-0.1,1.2-0.2l0.1,0.1c-0.1,1.1-0.1,2.2-0.1,3.3c0.4-0.2,1-0.6,2-0.6
		c0.3,0,0.5,0,0.7,0.1c0.5,0.2,0.8,0.6,0.9,1c0.1,0.2,0.1,0.3,0.1,1V83l0,0.5C80.3,84.4,80.3,84.5,80.3,85.2L80.3,85.2z"/>
	<path d="M87.2,85.2c-0.5,0-0.6,0-1.1,0L86,85.1l0-0.3c0-0.5,0-1.1,0-1.6l0-1.1c0-0.2,0-0.5-0.1-0.7c-0.1-0.5-0.4-0.8-1-0.8
		c-0.6,0-1.1,0.3-1.5,0.6c0,1.8,0,2.7,0.1,3.9l-0.1,0.1c-0.5,0-0.6,0-1.2,0l-0.1-0.1c0-0.7,0.1-1.7,0.1-3.6c0-0.9,0-1.7,0-2.6
		c0-0.9-0.1-1.2-0.1-1.7l0.1-0.1c0.5-0.1,0.7-0.1,1.2-0.2l0.1,0.1c-0.1,1.1-0.1,2.2-0.1,3.3c0.4-0.2,1-0.6,2-0.6
		c0.3,0,0.5,0,0.7,0.1c0.5,0.2,0.8,0.6,0.9,1c0.1,0.2,0.1,0.3,0.1,1V83l0,0.5C87.2,84.4,87.2,84.5,87.2,85.2L87.2,85.2z"/>
	<path d="M93.1,82.4c0,0.2,0,0.9-0.3,1.4c-0.3,0.6-0.8,0.7-1.2,0.7c-0.2,0-0.5,0-0.6-0.1c-0.9-0.4-0.9-1.5-0.9-1.9
		c0-0.4,0-1,0.3-1.5c0.4-0.6,1-0.6,1.2-0.6c0.6,0,1,0.3,1.2,0.6C93.1,81.5,93.1,82.2,93.1,82.4z M94.3,82.4c0-0.7-0.2-1.4-0.7-2
		c-0.5-0.5-1.2-0.7-2-0.7c-1.1,0-1.7,0.4-2,0.7c-0.7,0.7-0.8,1.7-0.8,2.1c0,0.3,0,1.4,0.8,2.1c0.4,0.3,1,0.7,2,0.7
		c0.8,0,1.4-0.2,1.9-0.6c0.4-0.3,0.6-0.7,0.7-1.2C94.3,83.1,94.3,82.7,94.3,82.4z"/>
	<path d="M100.2,83.9c0,0.4-0.1,0.5-0.1,0.9l-0.1,0.1c-0.3,0.1-0.7,0.4-1.5,0.4c-1.7,0-2.7-1.1-2.7-2.7c0-1.6,1.1-2.9,2.8-2.9
		c0.7,0,1.2,0.2,1.5,0.3l0,0.1c0,0.4-0.1,0.5-0.1,0.8l-0.1,0c-0.4-0.2-0.8-0.4-1.2-0.4c-0.9,0-1.7,0.7-1.7,2c0,1.4,0.8,1.9,1.7,1.9
		C99.5,84.4,99.9,84.1,100.2,83.9L100.2,83.9z"/>
	<path d="M106.5,85.2c-0.5,0-0.6,0-1.1,0l-0.1-0.1l0-0.3c0-0.5,0-1.1,0-1.6l0-1.1c0-0.2,0-0.5-0.1-0.7c-0.1-0.5-0.4-0.8-1-0.8
		c-0.6,0-1.1,0.3-1.5,0.6c0,1.8,0,2.7,0.1,3.9l-0.1,0.1c-0.5,0-0.6,0-1.2,0l-0.1-0.1c0-0.7,0.1-1.7,0.1-3.6c0-0.9,0-1.7,0-2.6
		c0-0.9-0.1-1.2-0.1-1.7l0.1-0.1c0.5-0.1,0.7-0.1,1.2-0.2l0.1,0.1c-0.1,1.1-0.1,2.2-0.1,3.3c0.4-0.2,1-0.6,2-0.6
		c0.3,0,0.5,0,0.7,0.1c0.5,0.2,0.8,0.6,0.9,1c0.1,0.2,0.1,0.3,0.1,1V83l0,0.5C106.5,84.4,106.5,84.5,106.5,85.2L106.5,85.2z"/>
	<path d="M110.8,82c0.4,0.1,1.4,0.5,1.4,1.5c0,0.4-0.2,0.9-0.6,1.2c-0.6,0.5-1.4,0.5-1.8,0.5c-0.6,0-1.1-0.1-1.5-0.3
		c-0.1,0-0.1,0-0.2-0.1l-0.1-0.1c0-0.4,0-0.5,0.1-0.9l0.1,0c0.2,0.1,0.7,0.5,1.5,0.5c0.9,0,1.2-0.5,1.2-0.8c0-0.5-0.5-0.6-1.1-0.8
		l-0.4-0.1c-0.5-0.1-1.4-0.4-1.4-1.5c0-1.1,1-1.6,2.2-1.6c0.8,0,1.4,0.2,1.6,0.3L112,80c0,0.4-0.1,0.4-0.1,0.8l-0.1,0
		c-0.3-0.2-0.7-0.4-1.4-0.4c-0.2,0-0.3,0-0.5,0.1c-0.3,0.1-0.6,0.3-0.6,0.6c0,0.4,0.4,0.6,1.1,0.8L110.8,82z"/>
	<path d="M117.9,83.9c0,0.4-0.1,0.5-0.1,0.9l-0.1,0.1c-0.3,0.1-0.7,0.4-1.5,0.4c-1.7,0-2.7-1.1-2.7-2.7c0-1.6,1.1-2.9,2.8-2.9
		c0.7,0,1.2,0.2,1.5,0.3l0,0.1c0,0.4-0.1,0.5-0.1,0.8l-0.1,0c-0.4-0.2-0.8-0.4-1.2-0.4c-0.9,0-1.7,0.7-1.7,2c0,1.4,0.8,1.9,1.7,1.9
		C117.1,84.4,117.6,84.1,117.9,83.9L117.9,83.9z"/>
	<path d="M124.2,85.2c-0.5,0-0.6,0-1.1,0l-0.1-0.1l0-0.3c0-0.5,0-1.1,0-1.6l0-1.1c0-0.2,0-0.5-0.1-0.7c-0.1-0.5-0.4-0.8-1-0.8
		c-0.6,0-1.1,0.3-1.5,0.6c0,1.8,0,2.7,0.1,3.9l-0.1,0.1c-0.5,0-0.6,0-1.2,0l-0.1-0.1c0-0.7,0.1-1.7,0.1-3.6c0-0.9,0-1.7,0-2.6
		c0-0.9-0.1-1.2-0.1-1.7l0.1-0.1c0.5-0.1,0.7-0.1,1.2-0.2l0.1,0.1c-0.1,1.1-0.1,2.2-0.1,3.3c0.4-0.2,1-0.6,2-0.6
		c0.3,0,0.5,0,0.7,0.1c0.5,0.2,0.8,0.6,0.9,1c0.1,0.2,0.1,0.3,0.1,1V83l0,0.5C124.2,84.4,124.2,84.5,124.2,85.2L124.2,85.2z"/>
	<path d="M131,79.8c0,0.8,0,1.5,0,2.4c0,1.3,0,2,0.1,2.5c0,0.1,0,0.3,0,0.4l0,0.1c-0.5,0-0.6,0-1.1,0l-0.1-0.1l0-0.4
		c-0.2,0.2-0.8,0.6-1.7,0.6c-0.4,0-0.9-0.1-1.3-0.4c-0.7-0.5-0.7-1.4-0.7-2.2v-0.6c0-1.5,0-1.6-0.1-2.2l0.1-0.1c0.5,0,0.6,0,1.1-0.1
		l0.1,0.1l0,2.3c0,0.3,0,0.5,0,1c0,0.4,0,1.4,1.1,1.4c0.6,0,1.1-0.3,1.4-0.5c0-0.6,0-1,0-1.6c0-1.4,0-1.7-0.1-2.4l0.1-0.1
		C130.3,79.8,130.5,79.8,131,79.8L131,79.8z"/>
	<path d="M134.3,85.2c-0.5,0-0.6,0-1.2,0l-0.1-0.1c0-0.7,0.1-1.7,0.1-3.6c0-1.4,0-3-0.1-4.3l0.1-0.1c0.5-0.1,0.6-0.1,1.2-0.2
		l0.1,0.1c-0.1,1.4-0.1,2.7-0.1,4.1C134.2,83.3,134.3,84.1,134.3,85.2L134.3,85.2z"/>
	<path d="M139.9,81.8c-1,0-1.4,0-2.8,0c0.1-1,0.8-1.4,1.4-1.4c0.5,0,1,0.2,1.2,0.8C139.9,81.4,139.9,81.7,139.9,81.8z M140.8,83.9
		c-0.1,0.1-0.4,0.3-0.8,0.5c-0.3,0.1-0.6,0.2-1,0.2c-0.3,0-1-0.1-1.4-0.6c-0.4-0.4-0.4-0.9-0.4-1.3c1.8,0,2.1,0,3.8,0l0.1-0.1
		c0-0.5,0-1.5-0.6-2.2c-0.3-0.4-0.9-0.7-1.8-0.7c-1.4,0-2.7,0.9-2.7,2.9c0,1.8,1.1,2.8,2.9,2.8c1,0,1.6-0.3,1.8-0.4l0.1-0.1
		C140.8,84.4,140.8,84.3,140.8,83.9L140.8,83.9z"/>
	<path d="M153.4,85.2c-0.7,0-0.9,0-1.6,0l-0.1-0.1c-0.2-1-0.2-1.3-0.4-2.1l-0.9-4.5l-0.9,4.2c-0.1,0.3-0.1,0.6-0.2,0.8
		c-0.1,0.4-0.3,1.2-0.3,1.4l-0.1,0.1c-0.8,0-0.8,0-1.6,0l-0.1-0.1c-0.2-0.9-1.1-4.8-1.7-7.2l0.1-0.1c0.6,0,0.7,0,1.2,0l0.1,0.1
		c0.1,0.4,0.1,0.7,0.2,1.2c0.1,0.5,0.2,0.9,0.3,1.4l0.8,3.9l0.9-4.6c0.2-0.8,0.2-0.9,0.4-1.9l0.1-0.1c0.8,0,1,0,1.7,0l0.1,0.1
		c0,0.1,0,0.2,0,0.3c0,0.3,0.3,1.6,0.4,1.9l0.9,4.4l0.9-4.1c0.4-2,0.4-2,0.5-2.4l0.1-0.1c0.5,0,0.6,0,1.1,0l0.1,0.1
		c-0.3,0.8-0.3,1.1-0.9,3.6c-0.3,1.1-0.6,2.2-0.8,3.4C153.5,84.9,153.5,85,153.4,85.2L153.4,85.2z"/>
	<path d="M160,81.8c-1,0-1.4,0-2.8,0c0.1-1,0.8-1.4,1.4-1.4c0.5,0,1,0.2,1.2,0.8C159.9,81.4,159.9,81.7,160,81.8z M160.8,83.9
		c-0.1,0.1-0.4,0.3-0.8,0.5c-0.3,0.1-0.6,0.2-1,0.2c-0.3,0-1-0.1-1.4-0.6c-0.4-0.4-0.4-0.9-0.4-1.3c1.8,0,2.1,0,3.8,0l0.1-0.1
		c0-0.5,0-1.5-0.6-2.2c-0.3-0.4-0.9-0.7-1.8-0.7c-1.4,0-2.7,0.9-2.7,2.9c0,1.8,1.1,2.8,2.9,2.8c1,0,1.6-0.3,1.8-0.4l0.1-0.1
		C160.8,84.4,160.8,84.3,160.8,83.9L160.8,83.9z"/>
	<path d="M165.1,82c0.4,0.1,1.4,0.5,1.4,1.5c0,0.4-0.2,0.9-0.6,1.2c-0.6,0.5-1.4,0.5-1.8,0.5c-0.6,0-1.1-0.1-1.5-0.3
		c-0.1,0-0.1,0-0.2-0.1l-0.1-0.1c0-0.4,0-0.5,0.1-0.9l0.1,0c0.2,0.1,0.7,0.5,1.5,0.5c0.9,0,1.2-0.5,1.2-0.8c0-0.5-0.5-0.6-1.1-0.8
		l-0.3-0.1c-0.5-0.1-1.4-0.4-1.4-1.5c0-1.1,1-1.6,2.2-1.6c0.8,0,1.4,0.2,1.6,0.3l0.1,0.1c0,0.4-0.1,0.4-0.1,0.8l-0.1,0
		c-0.3-0.2-0.7-0.4-1.4-0.4c-0.2,0-0.3,0-0.5,0.1c-0.3,0.1-0.6,0.3-0.6,0.6c0,0.4,0.4,0.6,1.1,0.8L165.1,82z"/>
	<path d="M170.5,84.4c0,0.3,0,0.4,0,0.7l-0.1,0.1c-0.2,0.1-0.4,0.1-0.8,0.1c-0.3,0-1,0-1.3-0.5c-0.2-0.3-0.2-0.5-0.2-1.8l0-2.3
		c-0.4,0-0.4,0-0.8,0l0-0.1c0-0.3,0-0.4,0-0.7l0.1-0.1c0.2,0,0.4,0,0.7,0c0-0.2,0-0.4,0-0.7c0-0.2,0-0.4,0-0.6l0.1-0.1
		c0.5-0.1,0.6-0.1,1.1-0.3l0.1,0.1c0,0.7,0,0.8,0,1.6c0.5,0,0.6,0,1.2,0l0.1,0.1c0,0.3,0,0.4,0,0.7l-0.1,0.1c-0.5,0-0.6,0-1.2,0
		l0,1.9c0,0.1,0,0.7,0,0.9c0,0.8,0.1,1,0.6,1C170.2,84.4,170.3,84.3,170.5,84.4L170.5,84.4z"/>
	<path d="M174.3,82c0.4,0.1,1.4,0.5,1.4,1.5c0,0.4-0.2,0.9-0.6,1.2c-0.6,0.5-1.4,0.5-1.8,0.5c-0.6,0-1.1-0.1-1.5-0.3
		c-0.1,0-0.1,0-0.2-0.1l-0.1-0.1c0-0.4,0-0.5,0.1-0.9l0.1,0c0.2,0.1,0.7,0.5,1.5,0.5c0.9,0,1.2-0.5,1.2-0.8c0-0.5-0.5-0.6-1.1-0.8
		l-0.3-0.1c-0.5-0.1-1.4-0.4-1.4-1.5c0-1.1,1-1.6,2.2-1.6c0.8,0,1.4,0.2,1.6,0.3l0.1,0.1c0,0.4-0.1,0.4-0.1,0.8l-0.1,0
		c-0.3-0.2-0.7-0.4-1.4-0.4c-0.2,0-0.3,0-0.5,0.1c-0.3,0.1-0.6,0.3-0.6,0.6c0,0.4,0.5,0.6,1.1,0.8L174.3,82z"/>
	<path d="M181.4,83.9c0,0.4-0.1,0.5-0.1,0.9l-0.1,0.1c-0.3,0.1-0.7,0.4-1.5,0.4c-1.7,0-2.7-1.1-2.7-2.7c0-1.6,1.1-2.9,2.8-2.9
		c0.7,0,1.2,0.2,1.5,0.3l0,0.1c0,0.4-0.1,0.5-0.1,0.8l-0.1,0c-0.4-0.2-0.8-0.4-1.2-0.4c-0.9,0-1.7,0.7-1.7,2c0,1.4,0.8,1.9,1.7,1.9
		C180.6,84.4,181.1,84.1,181.4,83.9L181.4,83.9z"/>
	<path d="M187.6,85.2c-0.5,0-0.6,0-1.1,0l-0.1-0.1l0-0.3c0-0.5,0-1.1,0-1.6l0-1.1c0-0.2,0-0.5-0.1-0.7c-0.1-0.5-0.4-0.8-1-0.8
		c-0.6,0-1.1,0.3-1.5,0.6c0,1.8,0,2.7,0.1,3.9l-0.1,0.1c-0.5,0-0.6,0-1.2,0l-0.1-0.1c0-0.7,0.1-1.7,0.1-3.6c0-0.9,0-1.7,0-2.6
		c0-0.9-0.1-1.2-0.1-1.7l0.1-0.1c0.5-0.1,0.7-0.1,1.2-0.2L184,77c-0.1,1.1-0.1,2.2-0.1,3.3c0.4-0.2,1-0.6,2-0.6c0.3,0,0.5,0,0.7,0.1
		c0.5,0.2,0.8,0.6,0.9,1c0.1,0.2,0.1,0.3,0.1,1V83l0,0.5C187.6,84.4,187.6,84.5,187.6,85.2L187.6,85.2z"/>
	<path d="M195.9,85.2c-0.7,0-0.8,0-1.5,0l-0.1-0.1c-0.1-0.6-0.3-1.5-0.5-2.2l-0.6-2.5l-0.6,2.5c-0.3,1.2-0.4,1.7-0.5,2.1l-0.1,0.1
		c-0.8,0-0.8,0-1.5,0l-0.1-0.1c-0.5-1.8-1.3-4.6-1.5-5.2l0-0.1c0.5,0,0.7,0,1.2-0.1l0.1,0.1c0.1,0.3,0.1,0.7,0.6,2.6l0.5,2.1
		l0.7-2.8c0.3-1.4,0.3-1.5,0.4-1.8l0.1-0.1c0.6,0,0.8,0,1.6,0l0.1,0.1c0.2,0.7,0.4,1.7,0.6,2.5l0.6,2.2l0.6-2.4
		c0.1-0.4,0.2-0.7,0.3-1.1c0.2-0.7,0.2-0.8,0.3-1.2l0.1-0.1c0.2,0,0.4,0,0.5,0c0.2,0,0.3,0,0.5,0l0.1,0.1
		C197.4,80.4,196.5,83.3,195.9,85.2L195.9,85.2z"/>
	<path d="M202.5,81.8c-1,0-1.4,0-2.8,0c0.1-1,0.8-1.4,1.4-1.4c0.5,0,1,0.2,1.2,0.8C202.5,81.4,202.5,81.7,202.5,81.8z M203.3,83.9
		c-0.1,0.1-0.4,0.3-0.8,0.5c-0.3,0.1-0.6,0.2-1,0.2c-0.3,0-1-0.1-1.4-0.6c-0.4-0.4-0.4-0.9-0.4-1.3c1.8,0,2.1,0,3.8,0l0.1-0.1
		c0-0.5,0-1.5-0.6-2.2c-0.3-0.4-0.9-0.7-1.8-0.7c-1.4,0-2.7,0.9-2.7,2.9c0,1.8,1.1,2.8,2.9,2.8c1,0,1.6-0.3,1.8-0.4l0.1-0.1
		C203.3,84.4,203.3,84.3,203.3,83.9L203.3,83.9z"/>
	<path d="M206.5,85.2c-0.6,0-0.7,0-1.2,0l-0.1-0.1c0-0.5,0.1-1,0.1-2.2c0-2,0-2.3-0.1-3l0.1-0.1c0.5-0.1,0.6-0.1,1.2-0.2l0.1,0.1
		c0,0.5-0.1,1.1-0.1,2.4C206.5,84.1,206.5,84.4,206.5,85.2L206.5,85.2z M206.5,78.3c-0.6,0-0.7,0-1.2,0.1l-0.1-0.1
		c0-0.1,0-0.3,0-0.4c0-0.2,0-0.4,0-0.6l0.1-0.1c0.6,0,0.7-0.1,1.2-0.1l0.1,0.1C206.5,77.7,206.5,77.8,206.5,78.3L206.5,78.3z"/>
	<path d="M212.2,85.2c-0.3,0-1.8,0-2.1,0c-1.3,0-1.4,0-2.1,0l0-0.1c0.8-1.3,2.2-3.5,2.7-4.5c-1.4,0-1.7,0-2.4,0l-0.1-0.1
		c0-0.3,0.1-0.4,0.1-0.7l0.1-0.1c1.8,0,2.1,0,4,0l0.1,0.1c-1,1.5-2.4,4-2.7,4.5c0.9,0,1.9,0,2.6-0.1l0.1,0.1
		C212.3,84.7,212.3,84.8,212.2,85.2L212.2,85.2z"/>
</g>
<g>
	<path class="st0" d="M180,22.7c1.9,0.6,6.2,2,6.2,6.7c0,1.8-0.7,3.8-2.7,5.3c-2.5,2-5.9,2.2-7.6,2.2c-2.6,0-4.7-0.4-6.5-1.1
		c-0.2-0.1-0.5-0.2-0.7-0.3l-0.2-0.4c0.2-1.7,0.2-2,0.3-3.8l0.5-0.1c0.9,0.6,3,2.2,6.6,2.2c3.8,0,5.1-2,5.1-3.4c0-2.1-2-2.7-5-3.6
		l-1.5-0.5c-2-0.6-6.2-1.9-6.2-6.5c0-4.6,4.3-6.9,9.6-6.9c3.5,0,6,0.9,6.9,1.3L185,14c-0.2,1.7-0.2,1.8-0.4,3.5l-0.4,0.2
		c-1.2-0.7-3-1.8-6.1-1.8c-0.7,0-1.3,0-2,0.2c-1.4,0.4-2.6,1.3-2.6,2.7c0,1.9,2,2.5,4.9,3.4L180,22.7z"/>
	<path class="st0" d="M208.6,24.5c0,0.9,0,3.9-1.1,6c-1.4,2.5-3.7,3-5.4,3c-1,0-2-0.2-2.8-0.6c-3.8-1.8-3.8-6.3-3.8-8.1
		c0-1.9,0.1-4.5,1.4-6.3c1.7-2.5,4.3-2.6,5.2-2.6c2.7,0,4.2,1.2,5.1,2.6C208.5,20.3,208.6,23.3,208.6,24.5z M213.8,24.3
		c-0.1-3.1-0.7-6.3-2.9-8.7c-2.1-2.2-5.3-3.2-8.5-3.2c-4.8,0-7.5,1.8-8.9,3.1c-3.2,3-3.3,7.4-3.3,9.1c0,1.5,0,6.1,3.3,9.1
		c1.5,1.5,4.2,3,8.5,3c3.3,0,6.1-0.8,8.2-2.7c1.6-1.5,2.6-3.2,3.1-5.4C213.7,27.3,213.8,25.8,213.8,24.3z"/>
	<circle class="st0" cx="160.1" cy="24.6" r="2.8"/>
</g>
<g>
	<path class="st1" d="M97.7,4.9c0,3.5-0.1,5.6-0.1,8.7c0,7.5,0.1,15,0.5,22.6l-0.2,0.3c-4,0-5,0-8.6,0.1L89,36.3
		c0.2-6.3,0.2-7.8,0.1-13.9c-1.9,0-3.8-0.1-5.7-0.1c-1.9,0-3.6,0-5.7,0.1c0,6.5,0.1,8.1,0.4,13.7l-0.2,0.3c-4.2,0-5,0-8.5,0.1
		l-0.2-0.3c0.1-3.8,0.2-6,0.2-10c0-11.1-0.3-16.6-0.5-21.3l0.3-0.3c4.1,0,4.9,0,8.5-0.1l0.2,0.3l-0.1,11.8c1.7,0,3.4,0,5,0
		c2.1,0,4.2,0,6.3-0.1c0-5.3,0-6.6-0.4-11.7L89,4.8c4,0,4.6,0,8.4-0.1L97.7,4.9z"/>
	<path class="st1" d="M110.8,21.8c0.1-1.4,0.5-3.3,2.3-4.3c0.6-0.4,1.2-0.5,1.9-0.5c1.6,0,2.5,0.8,3,1.6c0.7,1,0.7,2.1,0.7,3.1
		L110.8,21.8z M125.3,29.8c-1.8,0.9-4,1.9-7.4,1.9c-2.9,0-4.8-0.9-6-2.5c-0.7-0.9-0.9-1.8-1-2.7l15.4-0.3l0.3-0.3
		c0-2.2-0.1-4.4-0.8-6.7c-1.7-5.3-5.3-6.4-7-6.7c-1.2-0.3-2.3-0.4-3.4-0.4c-7.5,0-12.4,4.6-12.4,12.4c0,2.1,0.4,4.3,1.1,5.9
		c2.8,6.1,9.2,6.6,12.7,6.6c4,0,5.7-0.7,8.2-1.6l0.3-0.4l0.3-5.1L125.3,29.8z"/>
	<path class="st1" d="M145.4,21.8c2.6,0.9,6.3,2.2,6.3,7.2c0,0.3,0,0.6,0,1c-0.9,6.4-8,7-11.6,7c-3.5,0-5.5-0.7-7.8-1.5l-0.2-0.4
		c0.2-2.2,0.2-2.7,0.3-5.1l0.4-0.2c0.7,0.5,1.1,0.9,1.9,1.3c1.8,0.9,3.7,1.3,5,1.3c2.7,0,3.8-1.2,3.8-2.3c0-1.6-2.1-2.3-3.4-2.7
		l-1.8-0.6c-2.2-0.8-6.2-2.2-6.2-7c0-1.8,0.7-3.1,1.3-3.9c2.5-3.4,7.1-3.5,9.5-3.5c3.1,0,5,0.5,7.3,1.1l0.2,0.3l-0.5,4.9l-0.4,0.1
		c-1.2-0.7-3-1.9-5.9-1.9c-3,0-3.3,1.5-3.3,2c0,1.3,1.3,1.7,2.9,2.3L145.4,21.8z"/>
</g>
<g>
	<g>
		<path d="M174,101.1c0,1.3,0,1.4,0.1,2.1l-0.1,0.1c-0.5,0-0.6,0-1.1,0l0-0.1l0-0.4c-0.2,0.2-0.7,0.5-1.5,0.5
			c-1.1,0-1.9-0.7-1.9-1.7c0-1.4,1.2-1.8,3.2-2l0.2,0c0-0.3,0-0.5-0.1-0.6c-0.1-0.2-0.4-0.4-0.9-0.4c-0.7,0-1.2,0.2-1.7,0.4
			l-0.1-0.1c0-0.5,0-0.5,0-0.8l0.1-0.1c0.6-0.2,1.2-0.3,1.9-0.3c0.8,0,1.6,0.3,1.8,1.1c0.1,0.3,0.1,0.9,0.1,1.3V101.1z M172.7,100.4
			c-1.1,0.2-2.1,0.3-2.1,1.2c0,0.1,0,0.9,1,0.9c0.7,0,1.1-0.4,1.2-0.5L172.7,100.4L172.7,100.4z"/>
		<path d="M180.6,103.2c-0.5,0-0.6,0-1.1,0l-0.1-0.1c0-0.1,0-0.2,0-0.3c0-0.5,0-1,0-1.5c0-1.6,0-1.7-0.1-1.9c-0.2-0.8-0.8-0.8-1-0.8
			c-0.7,0-1.2,0.4-1.5,0.6c0,1.8,0,2.7,0.1,3.9l-0.1,0.1c-0.5,0-0.6,0-1.1,0l-0.1-0.1c0-0.6,0-1.1,0-1.9c0-1.6-0.1-2.5-0.1-3.2
			l0.1-0.1c0.5-0.1,0.6-0.1,1.2-0.2l0.1,0.1l0,0.5c0.3-0.2,1-0.6,1.9-0.6c0.3,0,0.6,0,0.9,0.2c0.3,0.2,0.5,0.4,0.6,0.7
			c0.1,0.3,0.2,0.6,0.2,1.3v1.2C180.7,102.3,180.7,102.8,180.6,103.2L180.6,103.2z"/>
		<path d="M186,95.2c0.6-0.1,0.7-0.1,1.2-0.2l0.1,0.1c-0.1,1.4-0.1,4-0.1,5c0,1.6,0,2.4,0.1,3.1l-0.1,0.1c-0.5,0-0.6,0-1.1,0
			l-0.1-0.1l0-0.4c-0.3,0.2-0.7,0.5-1.5,0.5c-1.5,0-2.5-1.1-2.5-2.6c0-1.1,0.5-1.8,1-2.2c0.8-0.7,1.8-0.7,2.4-0.7c0.2,0,0.3,0,0.6,0
			C186.1,96.5,186,95.9,186,95.2L186,95.2z M186,98.6c-0.2,0-0.3,0-0.5,0c-0.3,0-1.1,0-1.6,0.5c-0.2,0.2-0.6,0.7-0.6,1.6
			c0,0.6,0.2,1,0.4,1.3c0.2,0.2,0.6,0.5,1.1,0.5c0.7,0,1.1-0.3,1.2-0.5C186,100.6,186,100.3,186,98.6z"/>
	</g>
	<g>
		<path d="M196,96.2c0.4,1.1,0.8,2.4,1.1,3.4c0.3,1,0.9,2.6,1.2,3.6l0,0.1c-0.6,0-0.8,0-1.3,0l-0.1-0.1c-0.3-1-0.4-1.2-0.6-2.2
			c-0.4,0-0.9,0-1.3,0c-0.5,0-1,0-1.4,0c-0.3,1-0.4,1.2-0.6,2.1l-0.1,0.1c-0.5,0-0.6,0-1.1,0l0-0.1c0-0.1,0.1-0.2,0.1-0.3
			c0.4-1.1,0.8-2.2,1.2-3.3c0.7-1.8,0.9-2.5,1.2-3.5l0.1-0.1c0.8,0,0.9,0,1.6,0L196,96L196,96.2z M193.9,100.2c0.3,0,0.7,0,1,0
			c0.4,0,0.8,0,1.1,0l-1-3.5L193.9,100.2z"/>
		<path d="M202.1,99c-0.1,0-0.3-0.1-0.4-0.1c-0.2,0-0.4,0.1-0.5,0.1c-0.4,0.3-0.4,0.8-0.4,1.8c0,1.2,0,1.8,0.1,2.3l-0.1,0.1
			c-0.5,0-0.6,0-1.2,0l-0.1-0.1c0-0.8,0-1.5,0-2.5c0-1.6,0-2.1-0.1-2.7l0.1-0.1c0.4-0.1,0.7-0.1,1.1-0.2l0.1,0.1l-0.1,0.9
			c0.1-0.3,0.4-1,1.3-1c0.1,0,0.2,0,0.3,0l0,0.1C202.3,98.4,202.3,98.5,202.1,99L202.1,99z"/>
		<path d="M206.6,102.4c0,0.3,0,0.4,0,0.7l-0.1,0.1c-0.2,0.1-0.4,0.1-0.8,0.1c-0.3,0-1,0-1.3-0.5c-0.2-0.3-0.2-0.5-0.2-1.8l0-2.3
			c-0.4,0-0.4,0-0.8,0l0-0.1c0-0.3,0-0.4,0-0.7l0.1-0.1c0.2,0,0.4,0,0.7,0c0-0.2,0-0.4,0-0.7c0-0.2,0-0.4,0-0.6l0.1-0.1
			c0.5-0.1,0.6-0.1,1.1-0.3l0.1,0.1c0,0.7,0,0.8,0,1.6c0.5,0,0.6,0,1.2,0l0.1,0.1c0,0.3,0,0.4,0,0.7l-0.1,0.1c-0.5,0-0.6,0-1.2,0
			l0,1.9c0,0.1,0,0.7,0,0.9c0,0.8,0.1,1,0.6,1C206.2,102.5,206.4,102.4,206.6,102.4L206.6,102.4z"/>
		<path d="M210.5,100.1c0.4,0.1,1.4,0.5,1.4,1.5c0,0.4-0.2,0.9-0.6,1.2c-0.6,0.5-1.4,0.5-1.8,0.5c-0.6,0-1.1-0.1-1.5-0.3
			c-0.1,0-0.1,0-0.2-0.1l-0.1-0.1c0-0.4,0-0.5,0.1-0.9l0.1,0c0.2,0.1,0.7,0.5,1.5,0.5c0.9,0,1.2-0.5,1.2-0.8c0-0.5-0.5-0.6-1.1-0.8
			l-0.3-0.1c-0.4-0.1-1.4-0.4-1.4-1.5c0-1.1,1-1.6,2.2-1.6c0.8,0,1.4,0.2,1.6,0.3l0.1,0.1c0,0.4-0.1,0.4-0.1,0.8l-0.1,0
			c-0.3-0.2-0.7-0.4-1.4-0.4c-0.2,0-0.3,0-0.5,0.1c-0.3,0.1-0.6,0.3-0.6,0.6c0,0.4,0.4,0.6,1.1,0.8L210.5,100.1z"/>
	</g>
	<g>
		<path d="M11.1,96c0,0.9,0,1.2,0,2c0,0.4,0,0.8,0,1.5l0,0.9c0,0.6,0,1.5-0.6,2.2c-0.5,0.5-1.4,0.8-2.3,0.8c-1.4,0-2.1-0.5-2.4-0.8
			c-0.6-0.6-0.6-1.3-0.6-2.5v-1.1c0-1.5,0-1.7,0-3L5.3,96c0.6,0,0.7,0,1.2,0L6.6,96c0,1.1,0,2.9,0,3.9c0,1,0,1.7,0.4,2.1
			c0.2,0.2,0.6,0.5,1.4,0.5c0.3,0,1.1,0,1.6-0.8c0.2-0.4,0.2-1,0.2-1.8c0-1.2,0-2.7-0.1-3.9l0.1-0.1C10.6,96,10.6,96,11.1,96
			L11.1,96z"/>
		<path d="M18.1,103.2c-0.5,0-0.6,0-1.1,0l-0.1-0.1c0-0.1,0-0.2,0-0.3c0-0.5,0-1,0-1.5c0-1.6,0-1.7-0.1-1.9c-0.2-0.8-0.8-0.8-1-0.8
			c-0.7,0-1.2,0.4-1.5,0.6c0,1.8,0,2.7,0.1,3.9l-0.1,0.1c-0.5,0-0.6,0-1.1,0l-0.1-0.1c0-0.6,0-1.1,0-1.9c0-1.6-0.1-2.5-0.1-3.2
			l0.1-0.1c0.5-0.1,0.6-0.1,1.2-0.2l0.1,0.1l0,0.5c0.3-0.2,1-0.6,1.9-0.6c0.3,0,0.6,0,0.9,0.2c0.3,0.2,0.5,0.4,0.6,0.7
			c0.1,0.3,0.2,0.6,0.2,1.3v1.2C18.1,102.3,18.1,102.8,18.1,103.2L18.1,103.2z"/>
		<path d="M21.3,103.2c-0.6,0-0.7,0-1.2,0l-0.1-0.1c0-0.5,0.1-1,0.1-2.2c0-2,0-2.3-0.1-2.9l0.1-0.1c0.5-0.1,0.6-0.1,1.2-0.2l0.1,0.1
			c0,0.5-0.1,1.1-0.1,2.4C21.3,102.2,21.3,102.5,21.3,103.2L21.3,103.2z M21.3,96.4c-0.6,0-0.7,0-1.2,0.1l-0.1-0.1
			c0-0.1,0-0.3,0-0.4c0-0.2,0-0.4,0-0.6l0.1-0.1c0.6,0,0.7-0.1,1.2-0.1l0.1,0.1C21.4,95.8,21.4,95.9,21.3,96.4L21.3,96.4z"/>
		<path d="M25.8,103.2c-0.6,0-0.8,0-1.4,0l-0.1-0.1c-0.5-1.8-1.1-3.5-1.7-5.2l0-0.1c0.5,0,0.7,0,1.2-0.1l0.1,0.1
			c0.4,1.5,0.9,3.1,1.3,4.6c0.1-0.4,0.7-2.2,0.8-2.6c0.4-1.2,0.5-1.6,0.5-2l0.1-0.1c0.5,0,0.6,0,1,0l0.1,0.1
			C27,99.7,26.4,101.4,25.8,103.2L25.8,103.2z"/>
		<path d="M33.4,102c-0.1,0.4-0.1,0.5-0.1,0.9l-0.1,0.1c-0.2,0.1-0.8,0.4-1.7,0.4c-1.8,0-2.9-1-2.9-2.8c0-1.9,1.2-2.9,2.7-2.9
			c0.9,0,1.5,0.3,1.8,0.7c0.6,0.7,0.6,1.7,0.6,2.2l-0.1,0.1c-1.7,0-2,0-3.8,0c0,0.4,0,0.9,0.4,1.3c0.4,0.5,1.1,0.6,1.4,0.6
			c0.3,0,0.6-0.1,1-0.2C32.9,102.2,33.2,102.1,33.4,102L33.4,102z M32.4,99.3c-0.2-0.6-0.7-0.8-1.2-0.8c-0.6,0-1.3,0.4-1.4,1.4
			c1.3,0,1.7,0,2.7,0C32.5,99.8,32.5,99.5,32.4,99.3z"/>
		<path d="M37.9,99c-0.1,0-0.3-0.1-0.4-0.1c-0.2,0-0.4,0.1-0.5,0.1c-0.4,0.3-0.4,0.8-0.4,1.8c0,1.2,0,1.8,0.1,2.3l-0.1,0.1
			c-0.5,0-0.6,0-1.2,0l-0.1-0.1c0-0.8,0-1.5,0-2.5c0-1.6,0-2.1-0.1-2.7l0.1-0.1c0.4-0.1,0.7-0.1,1.1-0.2l0.1,0.1l-0.1,0.9
			c0.1-0.3,0.4-1,1.3-1c0.1,0,0.2,0,0.3,0l0,0.1C38,98.4,38,98.5,37.9,99L37.9,99z"/>
		<path d="M41.8,100.1c0.4,0.1,1.4,0.5,1.4,1.5c0,0.4-0.2,0.9-0.6,1.2c-0.6,0.5-1.4,0.5-1.7,0.5c-0.6,0-1.1-0.1-1.5-0.3
			c-0.1,0-0.1,0-0.2-0.1l-0.1-0.1c0-0.4,0-0.5,0.1-0.9l0.1,0c0.2,0.1,0.7,0.5,1.5,0.5c0.9,0,1.2-0.5,1.2-0.8c0-0.5-0.5-0.6-1.1-0.8
			l-0.3-0.1c-0.4-0.1-1.4-0.4-1.4-1.5c0-1.1,1-1.6,2.2-1.6c0.8,0,1.4,0.2,1.6,0.3l0.1,0.1c0,0.4-0.1,0.4-0.1,0.8l-0.1,0
			c-0.3-0.2-0.7-0.4-1.4-0.4c-0.2,0-0.3,0-0.5,0.1c-0.3,0.1-0.6,0.3-0.6,0.6c0,0.4,0.4,0.6,1.1,0.8L41.8,100.1z"/>
		<path d="M45.9,103.2c-0.6,0-0.7,0-1.2,0l-0.1-0.1c0-0.5,0.1-1,0.1-2.2c0-2,0-2.3-0.1-2.9l0.1-0.1c0.5-0.1,0.6-0.1,1.2-0.2l0.1,0.1
			c0,0.5-0.1,1.1-0.1,2.4C45.9,102.2,46,102.5,45.9,103.2L45.9,103.2z M46,96.4c-0.6,0-0.7,0-1.2,0.1l-0.1-0.1c0-0.1,0-0.3,0-0.4
			c0-0.2,0-0.4,0-0.6l0.1-0.1c0.6,0,0.7-0.1,1.2-0.1l0.1,0.1C46,95.8,46,95.9,46,96.4L46,96.4z"/>
		<path d="M50.5,102.4c0,0.3,0,0.4,0,0.7l-0.1,0.1c-0.2,0.1-0.4,0.1-0.8,0.1c-0.3,0-1,0-1.3-0.5c-0.2-0.3-0.2-0.5-0.2-1.8l0-2.3
			c-0.4,0-0.4,0-0.8,0l0-0.1c0-0.3,0-0.4,0-0.7l0.1-0.1c0.2,0,0.4,0,0.7,0c0-0.2,0-0.4,0-0.7c0-0.2,0-0.4,0-0.6l0.1-0.1
			c0.5-0.1,0.6-0.1,1.1-0.3l0.1,0.1c0,0.7,0,0.8,0,1.6c0.5,0,0.6,0,1.2,0l0.1,0.1c0,0.3,0,0.4,0,0.7l-0.1,0.1c-0.5,0-0.6,0-1.2,0
			l0,1.9c0,0.1,0,0.7,0,0.9c0,0.8,0.1,1,0.6,1C50.1,102.5,50.3,102.4,50.5,102.4L50.5,102.4z"/>
		<path d="M56.2,97.9c-0.6,1.5-1.7,4.2-1.9,4.9c-0.3,0.9-0.7,1.9-0.9,2.8l-0.1,0.1c-0.5,0-0.6,0-1.2,0l0-0.1l0-0.1
			c0.2-0.4,0.4-0.8,0.5-1.2c0.2-0.3,0.3-0.7,0.5-1c0,0,0-0.1,0-0.1c0-0.1-1.6-4.3-2.1-5.3l0-0.1c0.5,0,0.7,0,1.2-0.1l0.1,0.1
			c0.3,0.9,0.4,1.4,0.7,2l0.7,2l0.6-1.8c0.2-0.7,0.5-1.6,0.7-2.1l0.1-0.1C55.4,97.9,55.7,97.9,56.2,97.9L56.2,97.9z"/>
	</g>
	<g>
		<path d="M66.1,101.5c-0.1,0.5-0.4,0.9-0.7,1.2c-0.5,0.5-1.1,0.6-1.9,0.6c-1,0-1.6-0.4-2-0.7c-0.7-0.7-0.8-1.8-0.8-2.1
			c0-0.4,0-1.4,0.8-2.1c0.3-0.3,0.9-0.7,2-0.7c0.7,0,1.5,0.2,2,0.7c0.5,0.5,0.6,1.3,0.7,2C66.2,100.8,66.2,101.2,66.1,101.5z
			 M64.7,99.1c-0.2-0.3-0.6-0.6-1.2-0.6c-0.2,0-0.8,0-1.2,0.6c-0.3,0.4-0.3,1-0.3,1.5c0,0.4,0,1.5,0.9,1.9c0.2,0.1,0.4,0.1,0.6,0.1
			c0.4,0,0.9-0.1,1.2-0.7c0.3-0.5,0.3-1.2,0.3-1.4C65.1,100.3,65,99.6,64.7,99.1z"/>
		<path d="M69.3,103.2c-0.5,0-0.6,0-1.2,0l-0.1-0.1c0.1-1.1,0.1-2.2,0.1-3.3c0-0.5,0-0.7,0-1.2c-0.3,0-0.5,0-0.8,0l-0.1-0.1
			c0-0.3,0-0.4,0-0.7l0.1-0.1c0.3,0,0.5,0,0.7,0l0-0.7c0-0.5,0-0.6,0-0.8c0.3-1.2,1.6-1.2,1.9-1.2c0.2,0,0.3,0,0.4,0l0.1,0.1
			c0,0.3-0.1,0.4-0.1,0.7l-0.1,0.1c-0.1,0-0.2,0-0.3,0c-0.2,0-0.5,0-0.7,0.3c-0.2,0.3-0.2,0.5-0.2,1.2v0.3c0,0,1,0,1.1,0l0.1,0.1
			c0,0.3,0,0.4,0,0.7l-0.1,0.1c-0.5,0-0.6,0-1,0c0,1.4,0,2.8,0.1,4.1C69.3,102.9,69.3,103.1,69.3,103.2L69.3,103.2z"/>
		<path d="M79,96.2c0.4,1.1,0.8,2.4,1.1,3.4c0.3,1,0.9,2.6,1.2,3.6l0,0.1c-0.6,0-0.8,0-1.3,0l-0.1-0.1c-0.3-1-0.4-1.2-0.6-2.2
			c-0.4,0-0.9,0-1.3,0c-0.5,0-1,0-1.4,0c-0.3,1-0.4,1.2-0.6,2.1l-0.1,0.1c-0.5,0-0.6,0-1.1,0l0-0.1c0-0.1,0.1-0.2,0.1-0.3
			c0.4-1.1,0.8-2.2,1.2-3.3c0.7-1.8,0.9-2.5,1.2-3.5l0.1-0.1c0.8,0,0.9,0,1.6,0l0.1,0.1L79,96.2z M76.8,100.2c0.4,0,0.7,0,1,0
			c0.4,0,0.8,0,1.1,0l-1-3.5L76.8,100.2z"/>
		<path d="M83.7,98.3c0.2-0.2,0.7-0.6,1.6-0.6c1.4,0,2.4,1.1,2.4,2.5c0,1.6-1.1,3-3.4,3c-0.2,0-0.3,0-0.5,0c0,1.2,0,1.5,0.1,2.5
			l-0.1,0.1c-0.4,0-0.8,0-1.1,0l-0.1-0.1c0-0.6,0-1.3,0-2.3c0-0.6,0-1.2,0-1.8c0-1.6,0-2.3-0.1-3.5l0.1-0.1c0.5-0.1,0.7-0.1,1.1-0.2
			l0.1,0.1L83.7,98.3z M84.2,102.5c1.4,0,2.3-0.9,2.3-2.1c0-1.1-0.6-1.7-1.5-1.7c-0.6,0-1,0.3-1.3,0.4c0,0.5,0,1.1,0,1.6
			c0,0.6,0,1.2,0,1.8C83.8,102.5,84,102.5,84.2,102.5z"/>
		<path d="M90.6,98.3c0.2-0.2,0.7-0.6,1.6-0.6c1.4,0,2.4,1.1,2.4,2.5c0,1.6-1.1,3-3.4,3c-0.2,0-0.3,0-0.5,0c0,1.2,0,1.5,0.1,2.5
			l-0.1,0.1c-0.4,0-0.8,0-1.1,0l-0.1-0.1c0-0.6,0-1.3,0-2.3c0-0.6,0-1.2,0-1.8c0-1.6,0-2.3-0.1-3.5l0.1-0.1c0.5-0.1,0.7-0.1,1.1-0.2
			l0.1,0.1L90.6,98.3z M91.1,102.5c1.4,0,2.3-0.9,2.3-2.1c0-1.1-0.6-1.7-1.5-1.7c-0.6,0-1,0.3-1.3,0.4c0,0.5,0,1.1,0,1.6
			c0,0.6,0,1.2,0,1.8C90.7,102.5,90.9,102.5,91.1,102.5z"/>
		<path d="M97.5,103.2c-0.5,0-0.6,0-1.1,0l-0.1-0.1c0-0.7,0.1-1.7,0.1-3.6c0-1.4,0-2.9-0.1-4.3l0.1-0.1c0.5-0.1,0.6-0.1,1.2-0.2
			l0.1,0.1c-0.1,1.4-0.1,2.7-0.1,4.1C97.4,101.4,97.5,102.2,97.5,103.2L97.5,103.2z"/>
		<path d="M100.7,103.2c-0.6,0-0.7,0-1.2,0l-0.1-0.1c0-0.5,0.1-1,0.1-2.2c0-2,0-2.3-0.1-2.9l0.1-0.1c0.5-0.1,0.6-0.1,1.2-0.2
			l0.1,0.1c0,0.5-0.1,1.1-0.1,2.4C100.7,102.2,100.7,102.5,100.7,103.2L100.7,103.2z M100.7,96.4c-0.6,0-0.7,0-1.2,0.1l-0.1-0.1
			c0-0.1,0-0.3,0-0.4c0-0.2,0-0.4,0-0.6l0.1-0.1c0.6,0,0.7-0.1,1.2-0.1l0.1,0.1C100.8,95.8,100.8,95.9,100.7,96.4L100.7,96.4z"/>
		<path d="M107.3,102c-0.1,0.4-0.1,0.5-0.1,0.9l-0.1,0.1c-0.2,0.1-0.8,0.4-1.7,0.4c-1.8,0-2.9-1-2.9-2.8c0-1.9,1.2-2.9,2.7-2.9
			c0.9,0,1.5,0.3,1.8,0.7c0.6,0.7,0.6,1.7,0.6,2.2l-0.1,0.1c-1.7,0-2,0-3.8,0c0,0.4,0,0.9,0.4,1.3c0.4,0.5,1.1,0.6,1.4,0.6
			c0.3,0,0.6-0.1,1-0.2C106.8,102.2,107.1,102.1,107.3,102L107.3,102z M106.3,99.3c-0.2-0.6-0.7-0.8-1.2-0.8c-0.6,0-1.3,0.4-1.4,1.4
			c1.3,0,1.7,0,2.7,0C106.4,99.8,106.4,99.5,106.3,99.3z"/>
		<path d="M112.9,95.2c0.6-0.1,0.7-0.1,1.2-0.2l0.1,0.1c-0.1,1.4-0.1,4-0.1,5c0,1.6,0,2.4,0.1,3.1l-0.1,0.1c-0.5,0-0.6,0-1.1,0
			l-0.1-0.1l0-0.4c-0.3,0.2-0.7,0.5-1.5,0.5c-1.5,0-2.5-1.1-2.5-2.6c0-1.1,0.5-1.8,1-2.2c0.8-0.7,1.8-0.7,2.4-0.7c0.2,0,0.3,0,0.6,0
			C112.9,96.5,112.9,95.9,112.9,95.2L112.9,95.2z M112.9,98.6c-0.2,0-0.3,0-0.5,0c-0.3,0-1.1,0-1.6,0.5c-0.2,0.2-0.6,0.7-0.6,1.6
			c0,0.6,0.2,1,0.4,1.3c0.2,0.2,0.6,0.5,1.1,0.5c0.7,0,1.1-0.3,1.2-0.5C112.9,100.6,112.9,100.3,112.9,98.6z"/>
	</g>
	<g>
		<path d="M122.6,99.1c0.8,0.3,1.9,0.8,1.9,2.1c0,1.2-0.9,2.2-2.8,2.2c-1.2,0-1.9-0.3-2.2-0.5l0-0.1c0-0.4,0.1-0.6,0.1-0.9l0.1,0
			c0.3,0.2,0.9,0.6,1.9,0.6c1.1,0,1.6-0.5,1.6-1.2c0-0.7-0.6-1-1.3-1.3l-0.5-0.2c-0.8-0.3-1.8-0.8-1.8-2c0-0.4,0.1-0.8,0.3-1.1
			c0.5-0.7,1.4-0.9,2.3-0.9c0.9,0,1.4,0.2,2,0.3l0.1,0.1c0,0.4-0.1,0.5-0.1,0.9l-0.1,0c-0.5-0.2-1-0.5-1.8-0.5c-0.9,0-1.5,0.4-1.5,1
			c0,0.5,0.3,0.7,0.6,0.8c0.1,0.1,0.2,0.1,0.8,0.4L122.6,99.1z"/>
		<path d="M130.3,102c0,0.4-0.1,0.5-0.1,0.9l-0.1,0.1c-0.3,0.1-0.7,0.4-1.5,0.4c-1.7,0-2.7-1.1-2.7-2.7c0-1.6,1-2.9,2.7-2.9
			c0.7,0,1.2,0.2,1.5,0.3l0,0.1c0,0.4-0.1,0.5-0.1,0.8l-0.1,0c-0.4-0.2-0.8-0.4-1.2-0.4c-0.9,0-1.7,0.7-1.7,2c0,1.4,0.8,1.9,1.7,1.9
			C129.6,102.5,130,102.1,130.3,102L130.3,102z"/>
		<path d="M132.9,103.2c-0.6,0-0.7,0-1.2,0l-0.1-0.1c0-0.5,0.1-1,0.1-2.2c0-2,0-2.3-0.1-2.9l0.1-0.1c0.5-0.1,0.6-0.1,1.2-0.2
			l0.1,0.1c0,0.5-0.1,1.1-0.1,2.4C132.9,102.2,132.9,102.5,132.9,103.2L132.9,103.2z M132.9,96.4c-0.6,0-0.7,0-1.2,0.1l-0.1-0.1
			c0-0.1,0-0.3,0-0.4c0-0.2,0-0.4,0-0.6l0.1-0.1c0.6,0,0.7-0.1,1.2-0.1l0.1,0.1C133,95.8,133,95.9,132.9,96.4L132.9,96.4z"/>
		<path d="M139.5,102c-0.1,0.4-0.1,0.5-0.1,0.9l-0.1,0.1c-0.2,0.1-0.8,0.4-1.7,0.4c-1.8,0-2.9-1-2.9-2.8c0-1.9,1.2-2.9,2.7-2.9
			c0.9,0,1.5,0.3,1.8,0.7c0.6,0.7,0.6,1.7,0.6,2.2l-0.1,0.1c-1.7,0-2,0-3.8,0c0,0.4,0,0.9,0.4,1.3c0.4,0.5,1.1,0.6,1.4,0.6
			c0.3,0,0.6-0.1,1-0.2C139,102.2,139.3,102.1,139.5,102L139.5,102z M138.5,99.3c-0.2-0.6-0.7-0.8-1.2-0.8c-0.6,0-1.3,0.4-1.4,1.4
			c1.3,0,1.7,0,2.7,0C138.6,99.8,138.6,99.5,138.5,99.3z"/>
		<path d="M146.3,103.2c-0.5,0-0.6,0-1.1,0l-0.1-0.1c0-0.1,0-0.2,0-0.3c0-0.5,0-1,0-1.5c0-1.6,0-1.7-0.1-1.9c-0.2-0.8-0.8-0.8-1-0.8
			c-0.7,0-1.2,0.4-1.5,0.6c0,1.8,0,2.7,0.1,3.9l-0.1,0.1c-0.5,0-0.6,0-1.1,0l-0.1-0.1c0-0.6,0-1.1,0-1.9c0-1.6-0.1-2.5-0.1-3.2
			l0.1-0.1c0.5-0.1,0.6-0.1,1.2-0.2l0.1,0.1l0,0.5c0.3-0.2,1-0.6,1.9-0.6c0.3,0,0.6,0,0.9,0.2c0.3,0.2,0.5,0.4,0.6,0.7
			c0.1,0.3,0.2,0.6,0.2,1.3v1.2C146.3,102.3,146.3,102.8,146.3,103.2L146.3,103.2z"/>
		<path d="M152.4,102c0,0.4-0.1,0.5-0.1,0.9l-0.1,0.1c-0.3,0.1-0.7,0.4-1.5,0.4c-1.7,0-2.7-1.1-2.7-2.7c0-1.6,1-2.9,2.7-2.9
			c0.7,0,1.2,0.2,1.5,0.3l0,0.1c0,0.4-0.1,0.5-0.1,0.8l-0.1,0c-0.4-0.2-0.8-0.4-1.2-0.4c-0.9,0-1.7,0.7-1.7,2c0,1.4,0.8,1.9,1.7,1.9
			C151.7,102.5,152.1,102.1,152.4,102L152.4,102z"/>
		<path d="M158.3,102c-0.1,0.4-0.1,0.5-0.1,0.9l-0.1,0.1c-0.2,0.1-0.8,0.4-1.8,0.4c-1.8,0-2.9-1-2.9-2.8c0-1.9,1.2-2.9,2.7-2.9
			c0.9,0,1.5,0.3,1.8,0.7c0.6,0.7,0.6,1.7,0.6,2.2l-0.1,0.1c-1.7,0-2,0-3.8,0c0,0.4,0,0.9,0.4,1.3c0.4,0.5,1.1,0.6,1.4,0.6
			c0.3,0,0.6-0.1,1-0.2C157.9,102.2,158.1,102.1,158.3,102L158.3,102z M157.3,99.3c-0.2-0.6-0.7-0.8-1.2-0.8c-0.6,0-1.3,0.4-1.4,1.4
			c1.3,0,1.7,0,2.7,0C157.4,99.8,157.4,99.5,157.3,99.3z"/>
		<path d="M162.6,100.1c0.4,0.1,1.4,0.5,1.4,1.5c0,0.4-0.2,0.9-0.6,1.2c-0.6,0.5-1.4,0.5-1.7,0.5c-0.6,0-1.1-0.1-1.5-0.3
			c-0.1,0-0.1,0-0.2-0.1l-0.1-0.1c0-0.4,0-0.5,0.1-0.9l0.1,0c0.2,0.1,0.7,0.5,1.5,0.5c0.9,0,1.2-0.5,1.2-0.8c0-0.5-0.5-0.6-1.1-0.8
			l-0.3-0.1c-0.4-0.1-1.4-0.4-1.4-1.5c0-1.1,1-1.6,2.2-1.6c0.8,0,1.4,0.2,1.6,0.3l0.1,0.1c0,0.4-0.1,0.4-0.1,0.8l-0.1,0
			c-0.3-0.2-0.7-0.4-1.4-0.4c-0.2,0-0.3,0-0.5,0.1c-0.3,0.1-0.6,0.3-0.6,0.6c0,0.4,0.4,0.6,1.1,0.8L162.6,100.1z"/>
	</g>
	<g>
		<path d="M112.3,115.5c-0.7,0-0.9,0-1.6,0l-0.1-0.1c-0.2-1-0.2-1.3-0.4-2.1l-0.9-4.4l-0.9,4.2c-0.1,0.3-0.1,0.6-0.2,0.8
			c-0.1,0.4-0.3,1.2-0.3,1.4l-0.1,0.1c-0.8,0-0.8,0-1.6,0l-0.1-0.1c-0.2-0.9-1.1-4.8-1.7-7.2l0.1-0.1c0.6,0,0.7,0,1.2,0l0.1,0.1
			c0.1,0.4,0.1,0.7,0.2,1.2c0.1,0.5,0.2,0.9,0.3,1.4l0.8,3.9l0.9-4.6c0.2-0.8,0.2-0.9,0.4-1.9l0.1-0.1c0.8,0,1,0,1.7,0l0.1,0.1
			c0,0.1,0,0.2,0,0.3c0,0.3,0.3,1.6,0.4,1.9l0.9,4.3l0.9-4.1c0.4-2,0.4-2,0.5-2.4l0.1-0.1c0.5,0,0.6,0,1.1,0l0.1,0.1
			c-0.3,0.8-0.3,1.1-0.9,3.6c-0.3,1.1-0.6,2.2-0.8,3.4C112.4,115.3,112.4,115.4,112.3,115.5L112.3,115.5z"/>
		<path d="M119.7,114.3c-0.1,0.4-0.1,0.5-0.1,0.9l-0.1,0.1c-0.2,0.1-0.8,0.4-1.7,0.4c-1.8,0-2.9-1-2.9-2.8c0-1.9,1.2-2.9,2.7-2.9
			c0.9,0,1.5,0.3,1.8,0.7c0.6,0.7,0.6,1.7,0.6,2.2l-0.1,0.1c-1.7,0-2,0-3.8,0c0,0.4,0,0.9,0.4,1.3c0.4,0.5,1.1,0.6,1.4,0.6
			c0.3,0,0.6-0.1,1-0.2C119.3,114.5,119.5,114.3,119.7,114.3L119.7,114.3z M118.7,111.6c-0.2-0.6-0.7-0.8-1.2-0.8
			c-0.6,0-1.3,0.4-1.4,1.4c1.3,0,1.7,0,2.7,0C118.8,112.1,118.8,111.8,118.7,111.6z"/>
		<path d="M123.9,112.4c0.4,0.1,1.4,0.5,1.4,1.5c0,0.4-0.2,0.9-0.6,1.2c-0.6,0.5-1.4,0.5-1.7,0.5c-0.6,0-1.1-0.1-1.5-0.3
			c-0.1,0-0.1,0-0.2-0.1l-0.1-0.1c0-0.4,0-0.5,0.1-0.9l0.1,0c0.2,0.1,0.7,0.5,1.5,0.5c0.9,0,1.2-0.5,1.2-0.8c0-0.5-0.5-0.6-1.1-0.8
			l-0.3-0.1c-0.4-0.1-1.4-0.4-1.4-1.5c0-1.1,1-1.6,2.2-1.6c0.8,0,1.4,0.2,1.6,0.3l0.1,0.1c0,0.4-0.1,0.4-0.1,0.8l-0.1,0
			c-0.3-0.2-0.7-0.4-1.4-0.4c-0.2,0-0.3,0-0.5,0.1c-0.3,0.1-0.6,0.3-0.6,0.6c0,0.4,0.4,0.6,1.1,0.8L123.9,112.4z"/>
		<path d="M129.4,114.7c0,0.3,0,0.4,0,0.7l-0.1,0.1c-0.2,0.1-0.4,0.1-0.8,0.1c-0.3,0-1,0-1.3-0.5c-0.2-0.3-0.2-0.5-0.2-1.8l0-2.3
			c-0.4,0-0.4,0-0.8,0l0-0.1c0-0.3,0-0.4,0-0.7l0.1-0.1c0.2,0,0.4,0,0.7,0c0-0.2,0-0.4,0-0.7c0-0.2,0-0.4,0-0.6l0.1-0.1
			c0.5-0.1,0.6-0.1,1.1-0.3l0.1,0.1c0,0.7,0,0.8,0,1.6c0.5,0,0.6,0,1.2,0l0.1,0.1c0,0.3,0,0.4,0,0.7l-0.1,0.1c-0.5,0-0.6,0-1.2,0
			l0,1.9c0,0.1,0,0.7,0,0.9c0,0.8,0.1,1,0.6,1C129,114.8,129.2,114.7,129.4,114.7L129.4,114.7z"/>
		<path d="M135.4,114.3c-0.1,0.4-0.1,0.5-0.1,0.9l-0.1,0.1c-0.2,0.1-0.8,0.4-1.7,0.4c-1.8,0-2.9-1-2.9-2.8c0-1.9,1.2-2.9,2.7-2.9
			c0.9,0,1.5,0.3,1.8,0.7c0.6,0.7,0.6,1.7,0.6,2.2l-0.1,0.1c-1.7,0-2,0-3.8,0c0,0.4,0,0.9,0.4,1.3c0.4,0.5,1.1,0.6,1.4,0.6
			c0.3,0,0.6-0.1,1-0.2C134.9,114.5,135.2,114.3,135.4,114.3L135.4,114.3z M134.4,111.6c-0.2-0.6-0.7-0.8-1.2-0.8
			c-0.6,0-1.3,0.4-1.4,1.4c1.3,0,1.7,0,2.7,0C134.5,112.1,134.5,111.8,134.4,111.6z"/>
		<path d="M139.8,111.3c-0.1,0-0.3-0.1-0.4-0.1c-0.2,0-0.4,0.1-0.5,0.1c-0.4,0.3-0.4,0.8-0.4,1.8c0,1.2,0,1.8,0.1,2.3l-0.1,0.1
			c-0.5,0-0.6,0-1.2,0l-0.1-0.1c0-0.8,0-1.5,0-2.5c0-1.6,0-2.1-0.1-2.7l0.1-0.1c0.4-0.1,0.7-0.1,1.1-0.2l0.1,0.1l-0.1,0.9
			c0.1-0.3,0.4-1,1.3-1c0.1,0,0.2,0,0.3,0l0,0.1C140,110.6,140,110.8,139.8,111.3L139.8,111.3z"/>
		<path d="M146.3,115.5c-0.5,0-0.6,0-1.1,0l-0.1-0.1c0-0.1,0-0.2,0-0.3c0-0.5,0-1,0-1.5c0-1.6,0-1.7-0.1-1.9c-0.2-0.8-0.8-0.8-1-0.8
			c-0.7,0-1.2,0.4-1.5,0.6c0,1.8,0,2.7,0.1,3.9l-0.1,0.1c-0.5,0-0.6,0-1.1,0l-0.1-0.1c0-0.6,0-1.1,0-1.9c0-1.6-0.1-2.5-0.1-3.2
			l0.1-0.1c0.5-0.1,0.6-0.1,1.2-0.2l0.1,0.1l0,0.5c0.3-0.2,1-0.6,1.9-0.6c0.3,0,0.6,0,0.9,0.2c0.3,0.2,0.5,0.4,0.6,0.7
			c0.1,0.3,0.2,0.6,0.2,1.3v1.2C146.3,114.6,146.3,115.1,146.3,115.5L146.3,115.5z"/>
		<path d="M154.9,111.4c0.8,0.3,1.9,0.8,1.9,2.1c0,1.2-0.9,2.2-2.8,2.2c-1.2,0-1.9-0.3-2.2-0.5l0-0.1c0-0.4,0.1-0.6,0.1-0.9l0.1,0
			c0.3,0.2,0.9,0.6,1.9,0.6c1.1,0,1.6-0.5,1.6-1.2c0-0.7-0.6-1-1.3-1.3l-0.5-0.2c-0.8-0.3-1.8-0.8-1.8-2c0-0.4,0.1-0.8,0.3-1.1
			c0.5-0.7,1.4-0.9,2.3-0.9c0.9,0,1.4,0.2,2,0.3l0.1,0.1c0,0.4-0.1,0.5-0.1,0.9l-0.1,0c-0.5-0.2-1-0.5-1.8-0.5c-0.9,0-1.5,0.4-1.5,1
			c0,0.5,0.3,0.7,0.6,0.8c0.1,0.1,0.2,0.1,0.8,0.4L154.9,111.4z"/>
		<path d="M164.7,115.5c-0.7,0-0.8,0-1.5,0l-0.1-0.1c-0.1-0.6-0.3-1.5-0.5-2.2l-0.6-2.5l-0.6,2.5c-0.3,1.2-0.4,1.6-0.5,2.1l-0.1,0.1
			c-0.8,0-0.8,0-1.5,0l-0.1-0.1c-0.5-1.8-1.3-4.5-1.5-5.2l0-0.1c0.5,0,0.7,0,1.2-0.1l0.1,0.1c0.1,0.3,0.1,0.7,0.6,2.6l0.5,2.1
			l0.7-2.8c0.3-1.4,0.4-1.5,0.4-1.8l0.1-0.1c0.6,0,0.8,0,1.6,0l0.1,0.1c0.2,0.7,0.4,1.7,0.6,2.5l0.6,2.2l0.6-2.4
			c0.1-0.4,0.2-0.7,0.3-1.1c0.2-0.7,0.2-0.8,0.3-1.2l0.1-0.1c0.2,0,0.4,0,0.5,0c0.2,0,0.3,0,0.5,0l0.1,0.1
			C166.2,110.8,165.2,113.7,164.7,115.5L164.7,115.5z"/>
		<path d="M168.8,115.5c-0.6,0-0.7,0-1.2,0l-0.1-0.1c0-0.5,0.1-1,0.1-2.2c0-2,0-2.3-0.1-2.9l0.1-0.1c0.5-0.1,0.6-0.1,1.2-0.2
			l0.1,0.1c0,0.5-0.1,1.1-0.1,2.4C168.8,114.5,168.8,114.8,168.8,115.5L168.8,115.5z M168.8,108.7c-0.6,0-0.7,0-1.2,0.1l-0.1-0.1
			c0-0.1,0-0.3,0-0.4c0-0.2,0-0.4,0-0.6l0.1-0.1c0.6,0,0.7-0.1,1.2-0.1l0.1,0.1C168.9,108.1,168.9,108.2,168.8,108.7L168.8,108.7z"
			/>
		<path d="M173.4,114.7c0,0.3,0,0.4,0,0.7l-0.1,0.1c-0.2,0.1-0.4,0.1-0.8,0.1c-0.3,0-1,0-1.3-0.5c-0.2-0.3-0.2-0.5-0.2-1.8l0-2.3
			c-0.4,0-0.4,0-0.8,0l0-0.1c0-0.3,0-0.4,0-0.7l0.1-0.1c0.2,0,0.4,0,0.7,0c0-0.2,0-0.4,0-0.7c0-0.2,0-0.4,0-0.6l0.1-0.1
			c0.5-0.1,0.6-0.1,1.1-0.3l0.1,0.1c0,0.7,0,0.8,0,1.6c0.5,0,0.6,0,1.2,0l0.1,0.1c0,0.3,0,0.4,0,0.7l-0.1,0.1c-0.5,0-0.6,0-1.2,0
			l0,1.9c0,0.1,0,0.7,0,0.9c0,0.8,0.1,1,0.6,1C173,114.8,173.2,114.7,173.4,114.7L173.4,114.7z"/>
		<path d="M178.4,115.5c-0.3,0-1.8,0-2.1,0c-1.3,0-1.4,0-2.1,0l0-0.1c0.8-1.3,2.2-3.5,2.7-4.5c-1.4,0-1.7,0-2.4,0l-0.1-0.1
			c0-0.3,0.1-0.4,0.1-0.7l0.1-0.1c1.8,0,2,0,3.9,0l0.1,0.1c-1,1.5-2.4,4-2.7,4.5c0.9,0,1.9,0,2.6-0.1l0.1,0.1
			C178.5,115,178.5,115.2,178.4,115.5L178.4,115.5z"/>
		<path d="M184.6,114.3c-0.1,0.4-0.1,0.5-0.1,0.9l-0.1,0.1c-0.2,0.1-0.8,0.4-1.8,0.4c-1.8,0-2.9-1-2.9-2.8c0-1.9,1.2-2.9,2.7-2.9
			c0.9,0,1.5,0.3,1.8,0.7c0.6,0.7,0.6,1.7,0.6,2.2l-0.1,0.1c-1.7,0-2,0-3.8,0c0,0.4,0,0.9,0.4,1.3c0.4,0.5,1.1,0.6,1.4,0.6
			c0.3,0,0.6-0.1,1-0.2C184.1,114.5,184.4,114.3,184.6,114.3L184.6,114.3z M183.6,111.6c-0.2-0.6-0.7-0.8-1.2-0.8
			c-0.6,0-1.3,0.4-1.4,1.4c1.3,0,1.7,0,2.7,0C183.7,112.1,183.7,111.8,183.6,111.6z"/>
		<path d="M189.1,111.3c-0.1,0-0.3-0.1-0.4-0.1c-0.2,0-0.4,0.1-0.5,0.1c-0.4,0.3-0.4,0.8-0.4,1.8c0,1.2,0,1.8,0.1,2.3l-0.1,0.1
			c-0.5,0-0.6,0-1.2,0l-0.1-0.1c0-0.8,0-1.5,0-2.5c0-1.6,0-2.1-0.1-2.7l0.1-0.1c0.4-0.1,0.7-0.1,1.1-0.2l0.1,0.1l-0.1,0.9
			c0.1-0.3,0.4-1,1.3-1c0.1,0,0.2,0,0.3,0l0,0.1C189.2,110.6,189.2,110.8,189.1,111.3L189.1,111.3z"/>
		<path d="M191.8,115.5c-0.5,0-0.6,0-1.1,0l-0.1-0.1c0-0.7,0.1-1.7,0.1-3.6c0-1.4,0-2.9-0.1-4.3l0.1-0.1c0.5-0.1,0.6-0.1,1.2-0.2
			l0.1,0.1c-0.1,1.4-0.1,2.7-0.1,4.1C191.8,113.7,191.8,114.5,191.8,115.5L191.8,115.5z"/>
		<path d="M198.1,113.4c0,1.3,0,1.4,0.1,2.1l-0.1,0.1c-0.5,0-0.6,0-1.1,0l0-0.1l0-0.4c-0.2,0.2-0.7,0.5-1.5,0.5
			c-1.1,0-1.9-0.7-1.9-1.7c0-1.4,1.2-1.8,3.2-2l0.2,0c0-0.3,0-0.5-0.1-0.6c-0.1-0.2-0.4-0.4-0.9-0.4c-0.7,0-1.2,0.2-1.7,0.4
			l-0.1-0.1c0-0.5,0-0.5,0-0.8l0.1-0.1c0.6-0.2,1.2-0.3,1.9-0.3c0.8,0,1.6,0.3,1.8,1.1c0.1,0.3,0.1,0.9,0.1,1.3V113.4z M196.8,112.7
			c-1.1,0.2-2.1,0.3-2.1,1.2c0,0.1,0,0.9,1,0.9c0.7,0,1.1-0.4,1.2-0.5L196.8,112.7L196.8,112.7z"/>
		<path d="M204.9,115.5c-0.5,0-0.6,0-1.1,0l-0.1-0.1c0-0.1,0-0.2,0-0.3c0-0.5,0-1,0-1.5c0-1.6,0-1.7-0.1-1.9c-0.2-0.8-0.8-0.8-1-0.8
			c-0.7,0-1.2,0.4-1.5,0.6c0,1.8,0,2.7,0.1,3.9l-0.1,0.1c-0.5,0-0.6,0-1.1,0l-0.1-0.1c0-0.6,0-1.1,0-1.9c0-1.6-0.1-2.5-0.1-3.2
			l0.1-0.1c0.5-0.1,0.6-0.1,1.2-0.2l0.1,0.1l0,0.5c0.3-0.2,1-0.6,1.9-0.6c0.3,0,0.6,0,0.9,0.2c0.3,0.2,0.5,0.4,0.6,0.7
			c0.1,0.3,0.2,0.6,0.2,1.3v1.2C205,114.6,205,115.1,204.9,115.5L204.9,115.5z"/>
		<path d="M210.6,107.5c0.6-0.1,0.7-0.1,1.2-0.2l0.1,0.1c-0.1,1.4-0.1,4-0.1,5c0,1.6,0,2.4,0.1,3.1l-0.1,0.1c-0.5,0-0.6,0-1.1,0
			l-0.1-0.1l0-0.4c-0.3,0.2-0.7,0.5-1.5,0.5c-1.5,0-2.5-1.1-2.5-2.6c0-1.1,0.5-1.8,1-2.2c0.8-0.7,1.8-0.7,2.4-0.7c0.2,0,0.3,0,0.6,0
			C210.7,108.8,210.6,108.2,210.6,107.5L210.6,107.5z M210.7,110.9c-0.2,0-0.3,0-0.5,0c-0.3,0-1.1,0-1.6,0.5
			c-0.2,0.2-0.6,0.7-0.6,1.6c0,0.6,0.2,1,0.4,1.3c0.2,0.2,0.6,0.5,1.1,0.5c0.7,0,1.1-0.3,1.2-0.5
			C210.7,112.9,210.7,112.6,210.7,110.9z"/>
	</g>
</g>
</svg>
